{
"nombres" :[
 {
   "curp":"noaidnaisndposd",
   "nacimiento": "12/01/1990",
   "rfc": "adscfmkiac",
   "entidad": "Ciudad de Mexico",
   "municipio":"municipio",
   "name": "Juan Carlos",
   "paterno": "Molina",
   "materno": "",
   "edad": 36,
   "sexo": "Masculino"
 },{
   "name": "Fernando",
   "paterno": "Montero",
   "materno": "Mendez",
   "edad": 36,
   "sexo": "Masculino"
 },
 {
   "name": "Mario",
   "paterno": "Cuevas",
   "materno": "Olivar",
   "edad": 30,
   "sexo": "Masculino"
 },
 {
   "name": "Juan",
   "paterno": "Figueroa",
   "materno": "Casas",
   "edad": 32,
   "sexo": "Masculino"
 }
],
"Autos":
[
 {
   "placa": "U12DNA",
   "marca": "Volvo",
   "submarca": "V100",
   "modelo": 2015,
   "serie": "V1002015",
   "gps": "Si"
 },
 {
   "placa": "ZMT136",
   "marca": "Mercedez",
   "submarca": "C150",
   "modelo": 2010,
   "serie": "C1502010",
   "gps": "No"
 },
 {
   "placa": "A47NOT",
   "marca": "Isuzu",
   "submarca": "I300",
   "modelo": 2016,
   "serie": "I3002016",
   "gps": "Si"
 }
]
}