{"type":"Feature",
"features":[
{
	"type":"Feature","id":"0", "properties":{ 
		"EventTime": "2018/11/23 8:55:30",
		"Tipo": "Voz Saliente",
		"Numero": 6251058248,
		"Duracion": 33,
		"persona":1
	},
	"geometry":{"type":"Point","coordinates":[-99.106841000000003,19.518266000000001]}
},
{
	"type":"Feature","id":"1", "properties":{ 
		"EventTime": "2018/11/23 8:55:30",
		"Tipo": "Voz Entrante",
		"Numero": 6251058248,
		"Duracion": 33,
		"persona":1
	},
	"geometry":{"type":"Point","coordinates":[-99.102789999999999,19.517204000000000]}
},
{
	"type":"Feature","id":"2", "properties":{ 
		"EventTime": "2018/11/23 9:10:15",
		"Tipo": "Voz Entrante",
		"Numero": 6251058248,
		"Duracion": 62,
		"persona":1
	},
	"geometry":{"type":"Point","coordinates":[-99.096019999999996,19.520092000000002]}
},
{
	"type":"Feature","id":"3", "properties":{ 
		"EventTime": "2018/11/23 9:10:15",
		"Tipo": "Voz Saliente",
		"Numero": 6255943357,
		"Duracion": 61,
		"persona":1
	},
	"geometry":{"type":"Point","coordinates":[-99.114906000000005,19.521218999999999]}
},
{
	"type":"Feature","id":"4", "properties":{ 
		"EventTime": "2018/11/23 10:21:03",
		"Tipo": "Voz Saliente",
		"Numero": 6255943357,
		"Duracion": 36,
		"persona":1
	},
	"geometry":{"type":"Point","coordinates":[-99.100750000000005, 19.533422000000002]}
},
{
	"type":"Feature","id":"5", "properties":{ 
		"EventTime": "2018/11/23 10:52:30",
		"Tipo": "Voz Entrante",
		"Numero": 6251058248,
		"Duracion": 105,
		"persona":1
	},
	"geometry":{"type":"Point","coordinates":[-99.093549999999993, 19.540773000000002]}
},
{
	"type":"Feature","id":"6", "properties":{ 
		"EventTime": "2018/11/24 08:32:30",
		"Tipo": "Voz Saliente",
		"Numero": 6251068351,
		"Duracion": 105,
		"persona":2
	},
	"geometry":{"type":"Point","coordinates":[-99.120154999999997, 19.519977999999998]}
},

{
	"type":"Feature","id":"7", "properties":{ 
		"EventTime": "2018/11/24 08:32:30",
		"Tipo": "Voz Entrante",
		"Numero": 6251058248,
		"Duracion": 105,
		"persona":2
	},
	"geometry":{"type":"Point","coordinates":[-99.120154999999997, 19.5801570000]}
},
{
	"type":"Feature","id":"8", "properties":{ 
		"EventTime": "2018/11/24 09:32:30",
		"Tipo": "Voz Saliente",
		"Numero": 6251068351,
		"Duracion": 78,
		"persona":2
	},
	"geometry":{"type":"Point","coordinates":[-99.059690000000003, 19.639825999999999]}
},
{
	"type":"Feature","id":"9", "properties":{ 
		"EventTime": "2018/11/24 09:32:30",
		"Tipo": "Voz Entrante",
		"Numero": 6253068352,
		"Duracion": 78,
		"persona":2
	},
	"geometry":{"type":"Point","coordinates":[-99.054805000000002, 19.634826000000000]}
},
{
	"type":"Feature","id":"19", "properties":{ 
		"EventTime": "2018/11/24 09:52:30",
		"Tipo": "Voz Saliente",
		"Numero": 6252068351,
		"Duracion": 40,
		"persona":2
	},
	"geometry":{"type":"Point","coordinates":[-99.066924000000000, 19.625145000000000]}
},
{
	"type":"Feature","id":"11", "properties":{ 
		"EventTime": "2018/11/24 09:52:30",
		"Tipo": "Voz Entrante",
		"Numero": 6253068352,
		"Duracion": 40,
		"persona":2
	},
	"geometry":{"type":"Point","coordinates":[-99.120154999999997, 19.614789999999999]}
},
{
	"type":"Feature","id":"12", "properties":{ 
		"EventTime": "2018/11/25 08:32:30",
		"Tipo": "Voz Saliente",
		"Numero": 6251068356,
		"Duracion": 120,
		"persona":3
	},
	"geometry":{"type":"Point","coordinates":[-99.064719999999994, 19.608896000000001]}
},
{
	"type":"Feature","id":"13", "properties":{ 
		"EventTime": "2018/11/25 08:32:30",
		"Tipo": "Voz Entrante",
		"Numero": 6253068352,
		"Duracion": 120,
		"persona":3
	},
	"geometry":{"type":"Point","coordinates":[-98.985495999999998, 19.622077000000001]}
},
{
	"type":"Feature","id":"14", "properties":{ 
		"EventTime": "2018/11/25 14:30:30",
		"Tipo": "Voz Saliente",
		"Numero": 6251068341,
		"Duracion": 32,
		"persona":3
	},
	"geometry":{"type":"Point","coordinates":[-98.998592000000002, 19.621165000000001]}
},
{
	"type":"Feature","id":"15", "properties":{ 
		"EventTime": "2018/11/25 14:30:30",
		"Tipo": "Voz Entrante",
		"Numero": 6253068352,
		"Duracion": 32,
		"persona":3
	},
	"geometry":{"type":"Point","coordinates":[-99.072508999999997, 19.575174000000001]}
},
{
	"type":"Feature","id":"16", "properties":{ 
		"EventTime": "2018/11/27 08:10:30",
		"Tipo": "Voz Saliente",
		"Numero": 6251068351,
		"Duracion": 20,
		"persona":3
	},
	"geometry":{"type":"Point","coordinates":[-99.120154999999997, 19.519977999999998]}
},
{
	"type":"Feature","id":"17", "properties":{ 
		"EventTime": "2018/11/27 08:10:30",
		"Tipo": "Voz Entrante",
		"Numero": 6253068352,
		"Duracion": 20,
		"persona":3
	},
	"geometry":{"type":"Point","coordinates":[-99.06688218, 19.57921267]}
},
{
	"type":"Feature","id":"18", "properties":{ 
		"EventTime": "2018/11/21 19:32:30",
		"Tipo": "Voz Saliente",
		"Numero": 6251068351,
		"Duracion": 278,
		"persona":4
	},
	"geometry":{"type":"Point","coordinates":[-99.106841000000003, 19.519977999999998]}
},
{
	"type":"Feature","id":"19", "properties":{ 
		"EventTime": "2018/11/21 19:32:30",
		"Tipo": "Voz Entrante",
		"Numero": 6253068353,
		"Duracion": 278,
		"persona":4
	},
	"geometry":{"type":"Point","coordinates":[-99.102789999999999,19.517204000000000]}
},
{
	"type":"Feature","id":"20", "properties":{ 
		"EventTime": "2018/11/24 16:50:30",
		"Tipo": "Voz Saliente",
		"Numero": 6251068351,
		"Duracion": 105,
		"persona":4
	},
	"geometry":{"type":"Point","coordinates":[-99.106841000000003, 19.517204000000000]}
},
{
	"type":"Feature","id":"21", "properties":{ 
		"EventTime": "2018/11/24 16:50:30",
		"Tipo": "Voz Entrante",
		"Numero": 6253068353,
		"Duracion": 105,
		"persona":4
	},
	"geometry":{"type":"Point","coordinates":[-99.120154999999997, 19.519977999999998]}
},
{
	"type":"Feature","id":"22", "properties":{ 
		"EventTime": "2018/11/24 23:40:30",
		"Tipo": "Voz Saliente",
		"Numero": 6251068351,
		"Duracion": 87,
		"persona":4
	},
	"geometry":{"type":"Point","coordinates":[-99.072508999999997, 19.519977999999998]}
},
{
	"type":"Feature","id":"23", "properties":{ 
		"EventTime": "2018/11/24 23:40:30",
		"Tipo": "Voz Entrante",
		"Numero": 6253068353,
		"Duracion": 87,
		"persona":4
	},
	"geometry":{"type":"Point","coordinates":[-99.072508999999997, 19.575174000000001]}
},
{
	"type":"Feature","id":"24", "properties":{ 
		"EventTime": "2018/11/26 10:32:30",
		"Tipo": "Voz Saliente",
		"Numero": 6251068351,
		"Duracion": 105,
		"persona":5
	},
	"geometry":{"type":"Point","coordinates":[-99.096019999999996,19.520092000000002]}
},
{
	"type":"Feature","id":"25", "properties":{ 
		"EventTime": "2018/11/26 10:32:30",
		"Tipo": "Voz Entrante",
		"Numero": 6251068355,
		"Duracion": 105,
		"persona":5
	},
	"geometry":{"type":"Point","coordinates":[-99.11897034, 19.569977999999998]}
},
{
	"type":"Feature","id":"26", "properties":{ 
		"EventTime": "2018/11/28 08:00:30",
		"Tipo": "Voz Saliente",
		"Numero": 6251068351,
		"Duracion": 120,
		"persona":5
	},
	"geometry":{"type":"Point","coordinates":[-99.090154999999997, 19.639977999999998]}
},
{
	"type":"Feature","id":"27", "properties":{ 
		"EventTime": "2018/11/28 08:00:30",
		"Tipo": "Voz Entrante",
		"Numero": 6251068355,
		"Duracion": 120,
		"persona":5
	},
	"geometry":{"type":"Point","coordinates":[-99.129854999999997, 19.548777999999998]}
},
{
	"type":"Feature","id":"28", "properties":{ 
		"EventTime": "2018/11/30 03:33:30",
		"Tipo": "Voz Saliente",
		"Numero": 6251068351,
		"Duracion": 30,
		"persona":5
	},
	"geometry":{"type":"Point","coordinates":[-99.118154999999997, 19.53719977999999998]}
},
{
	"type":"Feature","id":"29", "properties":{ 
		"EventTime": "2018/11/30 03:33:30",
		"Tipo": "Voz Entrante",
		"Numero": 6251068355,
		"Duracion": 30,
		"persona":5
	},
	"geometry":{"type":"Point","coordinates":[-99.123454999999997, 19.581117999999998]}
},
]}