<svg viewBox="0 0 32 32">
  <g
      transform="matrix(0,1,1,0,-0.72285,0.72285)">
    <path
        d="M 1,24.2068 15.7272,9.2389 31,24.2068"
        style="fill:none;stroke-width:2;stroke-linecap:butt;stroke-linejoin:miter;stroke-miterlimit:4;stroke-opacity:1;stroke-dasharray:none"/>
  </g>
</svg>