{
"type": "FeatureCollection",
"name": "ruta2",
"crs": { "type": "name", "properties": { "name": "urn:ogc:def:crs:OGC:1.3:CRS84" } },
"features": [
{ "type": "Feature", "properties": { "Name": "Apaseo el Alto, Gto. - Irapuato-Guanajuato, Bairro Cruz Preta, San José de Tránsito, Gto.", "descriptio": "107 km, 1:26", "timestamp": null, "begin": null, "end": null, "altitudeMo": "clampToGround", "tessellate": 1, "extrude": 0, "visibility": -1, "drawOrder": null, "icon": null }, "geometry": { "type": "LineString", "coordinates": [ [ -100.6221, 20.46023 ], [ -100.62195, 20.46138 ], [ -100.62283, 20.46152 ], [ -100.62306, 20.45996 ], [ -100.62306, 20.45993 ], [ -100.62317, 20.4591 ], [ -100.62326, 20.45825 ], [ -100.62327, 20.45821 ], [ -100.62375, 20.45827 ], [ -100.62408, 20.45831 ], [ -100.62417, 20.45832 ], [ -100.62429, 20.45834 ], [ -100.62598, 20.45856 ], [ -100.62621, 20.45858 ], [ -100.62706, 20.45868 ], [ -100.6271, 20.45871 ], [ -100.62711, 20.45872 ], [ -100.62712, 20.45872 ], [ -100.6272, 20.45873 ], [ -100.6275, 20.45877 ], [ -100.62774, 20.45882 ], [ -100.62787, 20.45885 ], [ -100.62796, 20.45888 ], [ -100.62817, 20.45898 ], [ -100.62818, 20.459 ], [ -100.62819, 20.45901 ], [ -100.6282, 20.45902 ], [ -100.62822, 20.45902 ], [ -100.62823, 20.45903 ], [ -100.62824, 20.45903 ], [ -100.62826, 20.45903 ], [ -100.62827, 20.45903 ], [ -100.62829, 20.45903 ], [ -100.62831, 20.45903 ], [ -100.62867, 20.45931 ], [ -100.62891, 20.45951 ], [ -100.62916, 20.45975 ], [ -100.62926, 20.45988 ], [ -100.6294, 20.46007 ], [ -100.63022, 20.46094 ], [ -100.63058, 20.46131 ], [ -100.63063, 20.46137 ], [ -100.63079, 20.46154 ], [ -100.6309, 20.46168 ], [ -100.63094, 20.46173 ], [ -100.63099, 20.46181 ], [ -100.63102, 20.46188 ], [ -100.63104, 20.46198 ], [ -100.63106, 20.46205 ], [ -100.63107, 20.46213 ], [ -100.63111, 20.4625 ], [ -100.63112, 20.46253 ], [ -100.63112, 20.46261 ], [ -100.63113, 20.46268 ], [ -100.63113, 20.46273 ], [ -100.63114, 20.46274 ], [ -100.63115, 20.46287 ], [ -100.63115, 20.46293 ], [ -100.63116, 20.46299 ], [ -100.63119, 20.46321 ], [ -100.6312, 20.46327 ], [ -100.63121, 20.46331 ], [ -100.63122, 20.46335 ], [ -100.63123, 20.46338 ], [ -100.63125, 20.46341 ], [ -100.63128, 20.46344 ], [ -100.63131, 20.46347 ], [ -100.63135, 20.46349 ], [ -100.63139, 20.46351 ], [ -100.63143, 20.46353 ], [ -100.63145, 20.46353 ], [ -100.6315, 20.46354 ], [ -100.63157, 20.46354 ], [ -100.63166, 20.46353 ], [ -100.63182, 20.4635 ], [ -100.63191, 20.4635 ], [ -100.63202, 20.46349 ], [ -100.63207, 20.46349 ], [ -100.63213, 20.4635 ], [ -100.6322, 20.46351 ], [ -100.63226, 20.46353 ], [ -100.6323, 20.46355 ], [ -100.63235, 20.46358 ], [ -100.63241, 20.46362 ], [ -100.63249, 20.46369 ], [ -100.63256, 20.46376 ], [ -100.63263, 20.46383 ], [ -100.63281, 20.46401 ], [ -100.63299, 20.46416 ], [ -100.63306, 20.46424 ], [ -100.6333, 20.4645 ], [ -100.63344, 20.46467 ], [ -100.63355, 20.46479 ], [ -100.63361, 20.46486 ], [ -100.63397, 20.46528 ], [ -100.63406, 20.46521 ], [ -100.63432, 20.46551 ], [ -100.63517, 20.46645 ], [ -100.6361, 20.46749 ], [ -100.63647, 20.4679 ], [ -100.63844, 20.47009 ], [ -100.63896, 20.47066 ], [ -100.63958, 20.47136 ], [ -100.64037, 20.47226 ], [ -100.64164, 20.4737 ], [ -100.64229, 20.47442 ], [ -100.64239, 20.47454 ], [ -100.64255, 20.47472 ], [ -100.64355, 20.47581 ], [ -100.64407, 20.47638 ], [ -100.64418, 20.4765 ], [ -100.64733, 20.48002 ], [ -100.64843, 20.48123 ], [ -100.64865, 20.48149 ], [ -100.65051, 20.48358 ], [ -100.65069, 20.48378 ], [ -100.65107, 20.48419 ], [ -100.65127, 20.48441 ], [ -100.65223, 20.48549 ], [ -100.65251, 20.48578 ], [ -100.65268, 20.48598 ], [ -100.6537, 20.48714 ], [ -100.65378, 20.48723 ], [ -100.65381, 20.48726 ], [ -100.65389, 20.48734 ], [ -100.65485, 20.48843 ], [ -100.65519, 20.4888 ], [ -100.65529, 20.48891 ], [ -100.65538, 20.48901 ], [ -100.65716, 20.49099 ], [ -100.65854, 20.49255 ], [ -100.65901, 20.49305 ], [ -100.66093, 20.49518 ], [ -100.6618, 20.49615 ], [ -100.66271, 20.49717 ], [ -100.66375, 20.49832 ], [ -100.6647, 20.49938 ], [ -100.66473, 20.49941 ], [ -100.66566, 20.50045 ], [ -100.66572, 20.50052 ], [ -100.66579, 20.50059 ], [ -100.66672, 20.50163 ], [ -100.6688, 20.50394 ], [ -100.66991, 20.50519 ], [ -100.67014, 20.50544 ], [ -100.67072, 20.50609 ], [ -100.67204, 20.50756 ], [ -100.67341, 20.50909 ], [ -100.67459, 20.5104 ], [ -100.67526, 20.51115 ], [ -100.67547, 20.51138 ], [ -100.67567, 20.5116 ], [ -100.67894, 20.51524 ], [ -100.67934, 20.51568 ], [ -100.68041, 20.51687 ], [ -100.68074, 20.51725 ], [ -100.68193, 20.51859 ], [ -100.68245, 20.51914 ], [ -100.68282, 20.51956 ], [ -100.68381, 20.52065 ], [ -100.68676, 20.52394 ], [ -100.68783, 20.52513 ], [ -100.68794, 20.52525 ], [ -100.68799, 20.52531 ], [ -100.68806, 20.52539 ], [ -100.68815, 20.52548 ], [ -100.68821, 20.52554 ], [ -100.68831, 20.52565 ], [ -100.68875, 20.52612 ], [ -100.68894, 20.52637 ], [ -100.68927, 20.52673 ], [ -100.68962, 20.52712 ], [ -100.69005, 20.5276 ], [ -100.69173, 20.52947 ], [ -100.6919, 20.52966 ], [ -100.69303, 20.53093 ], [ -100.69356, 20.53152 ], [ -100.69474, 20.53283 ], [ -100.69522, 20.53336 ], [ -100.69559, 20.53376 ], [ -100.69567, 20.53385 ], [ -100.69591, 20.53411 ], [ -100.69611, 20.5343 ], [ -100.69623, 20.53441 ], [ -100.6963, 20.53449 ], [ -100.69637, 20.53455 ], [ -100.69643, 20.5346 ], [ -100.69647, 20.53462 ], [ -100.69653, 20.53467 ], [ -100.69662, 20.53473 ], [ -100.69666, 20.53476 ], [ -100.69673, 20.53481 ], [ -100.69685, 20.53488 ], [ -100.69705, 20.53498 ], [ -100.69803, 20.53537 ], [ -100.69848, 20.53554 ], [ -100.69856, 20.53557 ], [ -100.69864, 20.5356 ], [ -100.69874, 20.53564 ], [ -100.6989, 20.53569 ], [ -100.69897, 20.53572 ], [ -100.70013, 20.53612 ], [ -100.70062, 20.53628 ], [ -100.70092, 20.53637 ], [ -100.70125, 20.53645 ], [ -100.70156, 20.53648 ], [ -100.70188, 20.53648 ], [ -100.70211, 20.53645 ], [ -100.70239, 20.5364 ], [ -100.70276, 20.5363 ], [ -100.70357, 20.53607 ], [ -100.70414, 20.53589 ], [ -100.70428, 20.53584 ], [ -100.70481, 20.53567 ], [ -100.70931, 20.53425 ], [ -100.70958, 20.53417 ], [ -100.71062, 20.53384 ], [ -100.71122, 20.53365 ], [ -100.71152, 20.53355 ], [ -100.7116, 20.53353 ], [ -100.71331, 20.53298 ], [ -100.71376, 20.53283 ], [ -100.7141, 20.53272 ], [ -100.71443, 20.53262 ], [ -100.71677, 20.53187 ], [ -100.71719, 20.53174 ], [ -100.71748, 20.53165 ], [ -100.71836, 20.53138 ], [ -100.71856, 20.5313 ], [ -100.71867, 20.53128 ], [ -100.7187, 20.53127 ], [ -100.71876, 20.53125 ], [ -100.71885, 20.53122 ], [ -100.71919, 20.5311 ], [ -100.72018, 20.53079 ], [ -100.72076, 20.53062 ], [ -100.72084, 20.53059 ], [ -100.72132, 20.53045 ], [ -100.72176, 20.53032 ], [ -100.72199, 20.53026 ], [ -100.7225, 20.53012 ], [ -100.72527, 20.52928 ], [ -100.72545, 20.52923 ], [ -100.72567, 20.52916 ], [ -100.72577, 20.52913 ], [ -100.72636, 20.52895 ], [ -100.72692, 20.52877 ], [ -100.72719, 20.52868 ], [ -100.72752, 20.52857 ], [ -100.72819, 20.52836 ], [ -100.72865, 20.52821 ], [ -100.72979, 20.52785 ], [ -100.73027, 20.52771 ], [ -100.73218, 20.52709 ], [ -100.73269, 20.52694 ], [ -100.73341, 20.52671 ], [ -100.73351, 20.52667 ], [ -100.73366, 20.52661 ], [ -100.73382, 20.52654 ], [ -100.73394, 20.52649 ], [ -100.73414, 20.52639 ], [ -100.73437, 20.52629 ], [ -100.73471, 20.52618 ], [ -100.73511, 20.52604 ], [ -100.73532, 20.52598 ], [ -100.73558, 20.5259 ], [ -100.73565, 20.52588 ], [ -100.73571, 20.52586 ], [ -100.73613, 20.52572 ], [ -100.73634, 20.52565 ], [ -100.73653, 20.52559 ], [ -100.73671, 20.52552 ], [ -100.73812, 20.52508 ], [ -100.73924, 20.52472 ], [ -100.73976, 20.52456 ], [ -100.74064, 20.52428 ], [ -100.7417, 20.52394 ], [ -100.74224, 20.52377 ], [ -100.74244, 20.5237 ], [ -100.74264, 20.52363 ], [ -100.7429, 20.52355 ], [ -100.74309, 20.5235 ], [ -100.74385, 20.52327 ], [ -100.74394, 20.52324 ], [ -100.7443, 20.52312 ], [ -100.74563, 20.5227 ], [ -100.74674, 20.52234 ], [ -100.74686, 20.5223 ], [ -100.74712, 20.52222 ], [ -100.74842, 20.52181 ], [ -100.74921, 20.52155 ], [ -100.75106, 20.52097 ], [ -100.75144, 20.52085 ], [ -100.75161, 20.5208 ], [ -100.75271, 20.52044 ], [ -100.75308, 20.52031 ], [ -100.75454, 20.51983 ], [ -100.75518, 20.51963 ], [ -100.75669, 20.51915 ], [ -100.75948, 20.51821 ], [ -100.7603, 20.51788 ], [ -100.76064, 20.51771 ], [ -100.76104, 20.5175 ], [ -100.76136, 20.51728 ], [ -100.76165, 20.51704 ], [ -100.76192, 20.51678 ], [ -100.7621, 20.51657 ], [ -100.76223, 20.51643 ], [ -100.76229, 20.51638 ], [ -100.7624, 20.51627 ], [ -100.76258, 20.51615 ], [ -100.76267, 20.5161 ], [ -100.76299, 20.51595 ], [ -100.76325, 20.51585 ], [ -100.76382, 20.51579 ], [ -100.76414, 20.51579 ], [ -100.76436, 20.51582 ], [ -100.76466, 20.51588 ], [ -100.7651, 20.51592 ], [ -100.76514, 20.51592 ], [ -100.7655, 20.51596 ], [ -100.76604, 20.51594 ], [ -100.7666, 20.51586 ], [ -100.76709, 20.51579 ], [ -100.76741, 20.5157 ], [ -100.76877, 20.5153 ], [ -100.76914, 20.5152 ], [ -100.76974, 20.51509 ], [ -100.77003, 20.51504 ], [ -100.77015, 20.51501 ], [ -100.7705, 20.51495 ], [ -100.77062, 20.51492 ], [ -100.77071, 20.51489 ], [ -100.77086, 20.51482 ], [ -100.77089, 20.51481 ], [ -100.7709, 20.51481 ], [ -100.7709, 20.5148 ], [ -100.77092, 20.51479 ], [ -100.77093, 20.51479 ], [ -100.77096, 20.51478 ], [ -100.77099, 20.51476 ], [ -100.77102, 20.51474 ], [ -100.77106, 20.51472 ], [ -100.77107, 20.51472 ], [ -100.7711, 20.5147 ], [ -100.77114, 20.51468 ], [ -100.77155, 20.5145 ], [ -100.77167, 20.51444 ], [ -100.7719, 20.51433 ], [ -100.77195, 20.51431 ], [ -100.77212, 20.51424 ], [ -100.7723, 20.51416 ], [ -100.77358, 20.51375 ], [ -100.77374, 20.51371 ], [ -100.77396, 20.51366 ], [ -100.77411, 20.51363 ], [ -100.77432, 20.51359 ], [ -100.7745, 20.51357 ], [ -100.77468, 20.51356 ], [ -100.77479, 20.51356 ], [ -100.77491, 20.51356 ], [ -100.77504, 20.51357 ], [ -100.77513, 20.51358 ], [ -100.77549, 20.51362 ], [ -100.77569, 20.51366 ], [ -100.77573, 20.51367 ], [ -100.77588, 20.51371 ], [ -100.7764, 20.51386 ], [ -100.77714, 20.51409 ], [ -100.77777, 20.51426 ], [ -100.77824, 20.51445 ], [ -100.77845, 20.51456 ], [ -100.77877, 20.51474 ], [ -100.7789, 20.51483 ], [ -100.77904, 20.51495 ], [ -100.77922, 20.51515 ], [ -100.7793, 20.51527 ], [ -100.77934, 20.51532 ], [ -100.77952, 20.51544 ], [ -100.77966, 20.5155 ], [ -100.77997, 20.5156 ], [ -100.78012, 20.51563 ], [ -100.78043, 20.51569 ], [ -100.78074, 20.51573 ], [ -100.78118, 20.51578 ], [ -100.78138, 20.51582 ], [ -100.78328, 20.51622 ], [ -100.7838, 20.51635 ], [ -100.78469, 20.51656 ], [ -100.78495, 20.51663 ], [ -100.7856, 20.51678 ], [ -100.78638, 20.51696 ], [ -100.78647, 20.51698 ], [ -100.78661, 20.51701 ], [ -100.78679, 20.51706 ], [ -100.7869, 20.51709 ], [ -100.78725, 20.5172 ], [ -100.78845, 20.51751 ], [ -100.78864, 20.51755 ], [ -100.7891, 20.51766 ], [ -100.78925, 20.51768 ], [ -100.78946, 20.51772 ], [ -100.78975, 20.5176 ], [ -100.79, 20.51752 ], [ -100.79062, 20.51736 ], [ -100.79111, 20.51723 ], [ -100.79146, 20.51711 ], [ -100.79205, 20.51691 ], [ -100.79443, 20.51604 ], [ -100.79486, 20.51588 ], [ -100.7962, 20.5154 ], [ -100.79731, 20.515 ], [ -100.79837, 20.51461 ], [ -100.79841, 20.5146 ], [ -100.7986, 20.51453 ], [ -100.79861, 20.51453 ], [ -100.79862, 20.51453 ], [ -100.79863, 20.51452 ], [ -100.79886, 20.51444 ], [ -100.79893, 20.51442 ], [ -100.79949, 20.51423 ], [ -100.79957, 20.51421 ], [ -100.79961, 20.51419 ], [ -100.79973, 20.51415 ], [ -100.79978, 20.51414 ], [ -100.80038, 20.51394 ], [ -100.80044, 20.51391 ], [ -100.80046, 20.51391 ], [ -100.80047, 20.51391 ], [ -100.8005, 20.5139 ], [ -100.8006, 20.51386 ], [ -100.80136, 20.51359 ], [ -100.80156, 20.51352 ], [ -100.80168, 20.51347 ], [ -100.80428, 20.51254 ], [ -100.80456, 20.51244 ], [ -100.80457, 20.51244 ], [ -100.80465, 20.51241 ], [ -100.80466, 20.5124 ], [ -100.80467, 20.5124 ], [ -100.80486, 20.51233 ], [ -100.80497, 20.51229 ], [ -100.80509, 20.51225 ], [ -100.80664, 20.51167 ], [ -100.80697, 20.51155 ], [ -100.80724, 20.51146 ], [ -100.80731, 20.51144 ], [ -100.8077, 20.5113 ], [ -100.80816, 20.51113 ], [ -100.80888, 20.51092 ], [ -100.80931, 20.51076 ], [ -100.8097, 20.51063 ], [ -100.80982, 20.51059 ], [ -100.81037, 20.51039 ], [ -100.81102, 20.51013 ], [ -100.81122, 20.51005 ], [ -100.81136, 20.50999 ], [ -100.81151, 20.50994 ], [ -100.81172, 20.50987 ], [ -100.81186, 20.50983 ], [ -100.81204, 20.50979 ], [ -100.81223, 20.50974 ], [ -100.81243, 20.50971 ], [ -100.81261, 20.50967 ], [ -100.81282, 20.50964 ], [ -100.81303, 20.50962 ], [ -100.81323, 20.5096 ], [ -100.81342, 20.50958 ], [ -100.81362, 20.50957 ], [ -100.8138, 20.50957 ], [ -100.814, 20.50956 ], [ -100.81427, 20.50955 ], [ -100.81442, 20.50956 ], [ -100.81449, 20.50956 ], [ -100.81472, 20.50956 ], [ -100.81489, 20.50957 ], [ -100.81546, 20.50963 ], [ -100.81554, 20.50964 ], [ -100.81609, 20.50972 ], [ -100.81625, 20.50975 ], [ -100.81643, 20.50979 ], [ -100.81692, 20.50994 ], [ -100.81719, 20.51004 ], [ -100.8174, 20.51011 ], [ -100.81741, 20.51011 ], [ -100.81763, 20.51019 ], [ -100.81857, 20.51054 ], [ -100.81897, 20.51069 ], [ -100.81993, 20.51105 ], [ -100.82021, 20.51116 ], [ -100.82043, 20.51123 ], [ -100.82089, 20.51143 ], [ -100.82133, 20.51159 ], [ -100.82138, 20.51161 ], [ -100.8221, 20.51188 ], [ -100.82238, 20.51198 ], [ -100.82317, 20.51226 ], [ -100.82362, 20.51241 ], [ -100.82404, 20.51255 ], [ -100.82576, 20.51325 ], [ -100.82613, 20.5134 ], [ -100.82763, 20.51399 ], [ -100.82892, 20.51448 ], [ -100.8307, 20.51517 ], [ -100.83086, 20.51523 ], [ -100.83101, 20.51529 ], [ -100.83182, 20.51558 ], [ -100.83243, 20.51581 ], [ -100.83317, 20.5161 ], [ -100.8337, 20.51631 ], [ -100.8347, 20.51671 ], [ -100.83527, 20.51695 ], [ -100.83621, 20.51732 ], [ -100.83665, 20.51748 ], [ -100.83729, 20.51773 ], [ -100.83776, 20.51792 ], [ -100.83797, 20.51799 ], [ -100.83805, 20.51803 ], [ -100.83827, 20.51814 ], [ -100.83841, 20.51821 ], [ -100.83859, 20.51831 ], [ -100.83883, 20.51845 ], [ -100.83893, 20.51849 ], [ -100.83911, 20.51858 ], [ -100.83937, 20.5187 ], [ -100.83955, 20.51877 ], [ -100.83973, 20.51883 ], [ -100.84011, 20.51894 ], [ -100.84052, 20.51903 ], [ -100.84096, 20.51911 ], [ -100.84114, 20.51913 ], [ -100.84132, 20.51915 ], [ -100.84156, 20.51916 ], [ -100.84191, 20.51915 ], [ -100.84248, 20.51913 ], [ -100.84291, 20.5191 ], [ -100.84343, 20.51905 ], [ -100.84359, 20.51903 ], [ -100.84517, 20.51892 ], [ -100.84553, 20.51889 ], [ -100.84578, 20.51888 ], [ -100.84763, 20.51875 ], [ -100.84831, 20.5187 ], [ -100.84872, 20.51866 ], [ -100.84876, 20.51866 ], [ -100.84888, 20.51865 ], [ -100.849, 20.51865 ], [ -100.84905, 20.51864 ], [ -100.8491, 20.51864 ], [ -100.84912, 20.51864 ], [ -100.84919, 20.51864 ], [ -100.84947, 20.51862 ], [ -100.8495, 20.51862 ], [ -100.8517, 20.51846 ], [ -100.85172, 20.51845 ], [ -100.85285, 20.51839 ], [ -100.85338, 20.51835 ], [ -100.85339, 20.51835 ], [ -100.85428, 20.51829 ], [ -100.85436, 20.51828 ], [ -100.85502, 20.51824 ], [ -100.85531, 20.51821 ], [ -100.85559, 20.51819 ], [ -100.86051, 20.51784 ], [ -100.86082, 20.51782 ], [ -100.8629, 20.51767 ], [ -100.8633, 20.51765 ], [ -100.86772, 20.51733 ], [ -100.87093, 20.51711 ], [ -100.8714, 20.51707 ], [ -100.87186, 20.51704 ], [ -100.87205, 20.51703 ], [ -100.87219, 20.51702 ], [ -100.87222, 20.51701 ], [ -100.87233, 20.51701 ], [ -100.87279, 20.51697 ], [ -100.87379, 20.5169 ], [ -100.87387, 20.5169 ], [ -100.87416, 20.51688 ], [ -100.87553, 20.51679 ], [ -100.8774, 20.51665 ], [ -100.87811, 20.51661 ], [ -100.87826, 20.5166 ], [ -100.87844, 20.51659 ], [ -100.87864, 20.51657 ], [ -100.87896, 20.51654 ], [ -100.87898, 20.51654 ], [ -100.87957, 20.5165 ], [ -100.88029, 20.51645 ], [ -100.88089, 20.51641 ], [ -100.88345, 20.51623 ], [ -100.88416, 20.51618 ], [ -100.88422, 20.51617 ], [ -100.88522, 20.5161 ], [ -100.88576, 20.51606 ], [ -100.8865, 20.51601 ], [ -100.88663, 20.51601 ], [ -100.88676, 20.516 ], [ -100.88715, 20.51597 ], [ -100.88782, 20.51592 ], [ -100.88826, 20.51589 ], [ -100.88861, 20.51587 ], [ -100.88905, 20.51584 ], [ -100.89014, 20.51576 ], [ -100.89382, 20.51549 ], [ -100.89441, 20.51544 ], [ -100.89456, 20.51543 ], [ -100.89476, 20.51542 ], [ -100.89477, 20.51541 ], [ -100.89478, 20.51541 ], [ -100.89499, 20.5154 ], [ -100.89523, 20.51538 ], [ -100.89644, 20.5153 ], [ -100.89805, 20.5152 ], [ -100.89919, 20.51511 ], [ -100.90089, 20.51499 ], [ -100.90099, 20.51498 ], [ -100.90131, 20.51497 ], [ -100.90218, 20.51492 ], [ -100.90426, 20.51476 ], [ -100.90546, 20.51467 ], [ -100.90667, 20.51459 ], [ -100.90795, 20.5145 ], [ -100.90888, 20.51443 ], [ -100.90949, 20.51438 ], [ -100.91019, 20.51434 ], [ -100.91116, 20.51427 ], [ -100.91146, 20.51425 ], [ -100.91264, 20.51417 ], [ -100.91296, 20.51414 ], [ -100.91373, 20.51409 ], [ -100.91514, 20.51399 ], [ -100.91642, 20.51389 ], [ -100.91759, 20.51382 ], [ -100.91877, 20.51373 ], [ -100.91909, 20.51371 ], [ -100.91996, 20.51364 ], [ -100.92015, 20.51363 ], [ -100.92058, 20.51361 ], [ -100.92094, 20.51358 ], [ -100.92106, 20.51357 ], [ -100.92152, 20.51354 ], [ -100.9218, 20.51352 ], [ -100.92301, 20.51343 ], [ -100.92422, 20.51334 ], [ -100.9251, 20.51327 ], [ -100.92621, 20.51319 ], [ -100.9271, 20.51312 ], [ -100.92836, 20.51304 ], [ -100.92853, 20.51303 ], [ -100.92936, 20.51297 ], [ -100.93068, 20.51288 ], [ -100.93076, 20.51287 ], [ -100.93092, 20.51286 ], [ -100.93247, 20.51275 ], [ -100.93323, 20.51269 ], [ -100.9336, 20.51267 ], [ -100.93546, 20.51253 ], [ -100.93615, 20.51248 ], [ -100.93659, 20.51245 ], [ -100.93785, 20.51236 ], [ -100.93874, 20.5123 ], [ -100.94122, 20.51212 ], [ -100.94282, 20.512 ], [ -100.94803, 20.51166 ], [ -100.94876, 20.5116 ], [ -100.94933, 20.51155 ], [ -100.95296, 20.51129 ], [ -100.95433, 20.51118 ], [ -100.95472, 20.51115 ], [ -100.95483, 20.51114 ], [ -100.95484, 20.51114 ], [ -100.95518, 20.51112 ], [ -100.95602, 20.51105 ], [ -100.95671, 20.51099 ], [ -100.95745, 20.51093 ], [ -100.95988, 20.51079 ], [ -100.96011, 20.51078 ], [ -100.96053, 20.51076 ], [ -100.96136, 20.51071 ], [ -100.96816, 20.51019 ], [ -100.96834, 20.51018 ], [ -100.96914, 20.51012 ], [ -100.97047, 20.51003 ], [ -100.97191, 20.50992 ], [ -100.97291, 20.50985 ], [ -100.974, 20.50977 ], [ -100.97463, 20.50973 ], [ -100.97553, 20.50966 ], [ -100.97858, 20.50944 ], [ -100.98315, 20.50911 ], [ -100.9841, 20.50906 ], [ -100.98473, 20.50902 ], [ -100.98565, 20.50895 ], [ -100.98622, 20.5089 ], [ -100.98813, 20.50875 ], [ -100.98943, 20.50866 ], [ -100.99097, 20.50855 ], [ -100.99126, 20.50853 ], [ -100.99142, 20.50852 ], [ -100.99146, 20.50851 ], [ -100.99147, 20.50851 ], [ -100.99152, 20.50851 ], [ -100.99167, 20.5085 ], [ -100.99168, 20.5085 ], [ -100.99182, 20.50848 ], [ -100.9928, 20.50841 ], [ -100.99418, 20.50833 ], [ -100.99448, 20.50833 ], [ -100.99485, 20.50833 ], [ -100.99522, 20.50834 ], [ -100.99553, 20.50836 ], [ -100.99558, 20.50837 ], [ -100.99597, 20.50841 ], [ -100.99665, 20.50852 ], [ -100.99681, 20.50854 ], [ -100.99684, 20.50855 ], [ -100.99734, 20.50864 ], [ -100.99804, 20.50878 ], [ -100.99807, 20.50878 ], [ -100.99896, 20.50894 ], [ -100.99938, 20.50903 ], [ -101.00134, 20.50941 ], [ -101.00161, 20.50946 ], [ -101.00173, 20.50949 ], [ -101.00187, 20.50952 ], [ -101.00335, 20.5098 ], [ -101.00521, 20.51014 ], [ -101.00625, 20.51033 ], [ -101.00749, 20.51058 ], [ -101.00846, 20.51077 ], [ -101.00903, 20.51087 ], [ -101.00933, 20.51093 ], [ -101.00944, 20.51096 ], [ -101.0102, 20.51111 ], [ -101.01096, 20.51126 ], [ -101.01171, 20.51141 ], [ -101.01224, 20.51151 ], [ -101.01231, 20.51152 ], [ -101.01245, 20.51154 ], [ -101.01404, 20.51185 ], [ -101.01405, 20.51186 ], [ -101.01577, 20.51219 ], [ -101.01616, 20.51227 ], [ -101.0179, 20.51261 ], [ -101.01826, 20.51269 ], [ -101.02079, 20.51317 ], [ -101.02576, 20.51414 ], [ -101.02662, 20.5143 ], [ -101.03246, 20.51544 ], [ -101.03317, 20.51557 ], [ -101.0361, 20.51613 ], [ -101.03848, 20.51661 ], [ -101.04065, 20.51702 ], [ -101.04153, 20.51719 ], [ -101.04361, 20.51759 ], [ -101.04606, 20.51806 ], [ -101.04704, 20.51826 ], [ -101.04728, 20.51829 ], [ -101.04782, 20.5184 ], [ -101.04806, 20.51845 ], [ -101.04868, 20.51857 ], [ -101.05198, 20.51921 ], [ -101.05389, 20.51957 ], [ -101.05451, 20.51969 ], [ -101.05625, 20.52004 ], [ -101.05703, 20.5202 ], [ -101.05724, 20.52024 ], [ -101.0581, 20.52041 ], [ -101.05829, 20.52044 ], [ -101.0584, 20.52046 ], [ -101.05868, 20.52052 ], [ -101.06067, 20.52089 ], [ -101.06258, 20.52125 ], [ -101.06277, 20.52129 ], [ -101.06303, 20.52135 ], [ -101.06331, 20.52143 ], [ -101.06373, 20.52155 ], [ -101.06413, 20.52169 ], [ -101.06446, 20.5218 ], [ -101.06482, 20.52194 ], [ -101.06535, 20.52214 ], [ -101.06554, 20.5222 ], [ -101.06629, 20.52247 ], [ -101.06675, 20.52264 ], [ -101.06828, 20.52319 ], [ -101.07153, 20.52439 ], [ -101.07198, 20.52454 ], [ -101.07229, 20.52466 ], [ -101.07347, 20.5251 ], [ -101.07356, 20.52513 ], [ -101.07359, 20.52514 ], [ -101.07363, 20.52516 ], [ -101.07403, 20.5253 ], [ -101.07405, 20.52531 ], [ -101.07413, 20.52534 ], [ -101.07424, 20.52538 ], [ -101.07554, 20.52586 ], [ -101.08076, 20.52775 ], [ -101.08753, 20.53024 ], [ -101.08881, 20.53071 ], [ -101.0896, 20.531 ], [ -101.08988, 20.5311 ], [ -101.09131, 20.5316 ], [ -101.09685, 20.5336 ], [ -101.09794, 20.534 ], [ -101.09963, 20.53463 ], [ -101.1, 20.53476 ], [ -101.10021, 20.53483 ], [ -101.10244, 20.53564 ], [ -101.1026, 20.53569 ], [ -101.10332, 20.53594 ], [ -101.10435, 20.53632 ], [ -101.1048, 20.53648 ], [ -101.10887, 20.53797 ], [ -101.11049, 20.53857 ], [ -101.1106, 20.53861 ], [ -101.11105, 20.53877 ], [ -101.11298, 20.53947 ], [ -101.1167, 20.54081 ], [ -101.11766, 20.54114 ], [ -101.12199, 20.54274 ], [ -101.12249, 20.54292 ], [ -101.1253, 20.54394 ], [ -101.12627, 20.54429 ], [ -101.12629, 20.54429 ], [ -101.12647, 20.54436 ], [ -101.1266, 20.54441 ], [ -101.12763, 20.54478 ], [ -101.13091, 20.54598 ], [ -101.13158, 20.54623 ], [ -101.13282, 20.54665 ], [ -101.13573, 20.54773 ], [ -101.13601, 20.54784 ], [ -101.137, 20.54819 ], [ -101.13706, 20.54822 ], [ -101.13707, 20.54822 ], [ -101.13851, 20.5487 ], [ -101.13894, 20.54885 ], [ -101.13934, 20.549 ], [ -101.14155, 20.54982 ], [ -101.14222, 20.55005 ], [ -101.14286, 20.55029 ], [ -101.14347, 20.5505 ], [ -101.14391, 20.55066 ], [ -101.14478, 20.55097 ], [ -101.14585, 20.55135 ], [ -101.14671, 20.55166 ], [ -101.14767, 20.552 ], [ -101.14822, 20.55221 ], [ -101.14848, 20.5523 ], [ -101.14908, 20.55252 ], [ -101.14962, 20.55271 ], [ -101.15022, 20.55292 ], [ -101.15158, 20.55341 ], [ -101.15321, 20.554 ], [ -101.15418, 20.55437 ], [ -101.15492, 20.55465 ], [ -101.15572, 20.55492 ], [ -101.15655, 20.55522 ], [ -101.15842, 20.5559 ], [ -101.15853, 20.55594 ], [ -101.1592, 20.55618 ], [ -101.15998, 20.55646 ], [ -101.16115, 20.5569 ], [ -101.16177, 20.55714 ], [ -101.16331, 20.55769 ], [ -101.16345, 20.55775 ], [ -101.16415, 20.55798 ], [ -101.16485, 20.55822 ], [ -101.16491, 20.55824 ], [ -101.1656, 20.55842 ], [ -101.16603, 20.55853 ], [ -101.16617, 20.55856 ], [ -101.16636, 20.55859 ], [ -101.1665, 20.5586 ], [ -101.16666, 20.55861 ], [ -101.16686, 20.55861 ], [ -101.16709, 20.55859 ], [ -101.16725, 20.55856 ], [ -101.16749, 20.55851 ], [ -101.16772, 20.55842 ], [ -101.16787, 20.55836 ], [ -101.16804, 20.55828 ], [ -101.16823, 20.55818 ], [ -101.16861, 20.55796 ], [ -101.16889, 20.55779 ], [ -101.16924, 20.55759 ], [ -101.16963, 20.55736 ], [ -101.17003, 20.55714 ], [ -101.17057, 20.55684 ], [ -101.171, 20.55659 ], [ -101.17111, 20.55654 ], [ -101.17131, 20.55642 ], [ -101.17157, 20.55628 ], [ -101.17185, 20.55611 ], [ -101.1722, 20.55588 ], [ -101.17228, 20.55582 ], [ -101.17292, 20.55536 ], [ -101.17322, 20.55515 ], [ -101.17367, 20.5548 ], [ -101.17495, 20.55389 ], [ -101.17561, 20.55341 ], [ -101.17673, 20.5526 ], [ -101.17694, 20.55244 ], [ -101.17747, 20.55208 ], [ -101.17826, 20.55151 ], [ -101.1791, 20.5509 ], [ -101.17937, 20.5507 ], [ -101.18079, 20.54966 ], [ -101.18135, 20.54926 ], [ -101.18155, 20.54912 ], [ -101.18176, 20.54897 ], [ -101.18201, 20.54879 ], [ -101.18302, 20.54808 ], [ -101.18382, 20.5475 ], [ -101.18497, 20.54667 ], [ -101.18631, 20.54573 ], [ -101.18648, 20.5456 ], [ -101.18797, 20.54452 ], [ -101.18814, 20.5444 ], [ -101.18861, 20.54408 ], [ -101.18864, 20.54405 ], [ -101.18893, 20.54387 ], [ -101.18913, 20.54376 ], [ -101.18933, 20.54366 ], [ -101.18951, 20.54357 ], [ -101.18959, 20.54354 ], [ -101.19051, 20.54317 ], [ -101.19059, 20.54313 ], [ -101.19117, 20.54291 ], [ -101.19194, 20.5426 ], [ -101.19345, 20.54201 ], [ -101.19397, 20.54181 ], [ -101.19414, 20.54175 ], [ -101.19427, 20.54171 ], [ -101.19449, 20.54164 ], [ -101.19487, 20.54156 ], [ -101.195, 20.54154 ], [ -101.19527, 20.5415 ], [ -101.1956, 20.54146 ], [ -101.1957, 20.54144 ], [ -101.19603, 20.5414 ], [ -101.19638, 20.54135 ], [ -101.19769, 20.54117 ], [ -101.19824, 20.54108 ], [ -101.19842, 20.54105 ], [ -101.19851, 20.54104 ], [ -101.19853, 20.54103 ], [ -101.19854, 20.54103 ], [ -101.19866, 20.54101 ], [ -101.19961, 20.54086 ], [ -101.20018, 20.54077 ], [ -101.20036, 20.54074 ], [ -101.20059, 20.5407 ], [ -101.20073, 20.54069 ], [ -101.20115, 20.54067 ], [ -101.20142, 20.54067 ], [ -101.20461, 20.54092 ], [ -101.20506, 20.54096 ], [ -101.20551, 20.54099 ], [ -101.20701, 20.54109 ], [ -101.20736, 20.54111 ], [ -101.20747, 20.54112 ], [ -101.20786, 20.54113 ], [ -101.20821, 20.54117 ], [ -101.2083, 20.54118 ], [ -101.2085, 20.54121 ], [ -101.20884, 20.54128 ], [ -101.20921, 20.54139 ], [ -101.20948, 20.54148 ], [ -101.20979, 20.5416 ], [ -101.20995, 20.54166 ], [ -101.21005, 20.5417 ], [ -101.21029, 20.54182 ], [ -101.21087, 20.5421 ], [ -101.2109, 20.54211 ], [ -101.21155, 20.5424 ], [ -101.21201, 20.54262 ], [ -101.21221, 20.54271 ], [ -101.21337, 20.54326 ], [ -101.21441, 20.54376 ], [ -101.21561, 20.54433 ], [ -101.21696, 20.54494 ], [ -101.2172, 20.54505 ], [ -101.21816, 20.54548 ], [ -101.21894, 20.54586 ], [ -101.21924, 20.54605 ], [ -101.21943, 20.54618 ], [ -101.21975, 20.54641 ], [ -101.22008, 20.54671 ], [ -101.22038, 20.54702 ], [ -101.22055, 20.54723 ], [ -101.22082, 20.54761 ], [ -101.22095, 20.54783 ], [ -101.22103, 20.54798 ], [ -101.22109, 20.5481 ], [ -101.22123, 20.54837 ], [ -101.22132, 20.54863 ], [ -101.22142, 20.54893 ], [ -101.2215, 20.54922 ], [ -101.22157, 20.54962 ], [ -101.2216, 20.54984 ], [ -101.22167, 20.55013 ], [ -101.22174, 20.55062 ], [ -101.22185, 20.55134 ], [ -101.22196, 20.55204 ], [ -101.222, 20.55226 ], [ -101.22201, 20.55236 ], [ -101.22208, 20.55286 ], [ -101.22213, 20.55314 ], [ -101.22223, 20.55383 ], [ -101.22224, 20.55389 ], [ -101.22225, 20.55395 ], [ -101.22226, 20.55401 ], [ -101.22228, 20.55417 ], [ -101.2223, 20.55428 ], [ -101.22239, 20.55481 ], [ -101.2224, 20.55482 ], [ -101.22244, 20.55506 ], [ -101.22258, 20.55575 ], [ -101.22273, 20.55662 ], [ -101.22297, 20.55797 ], [ -101.22306, 20.55849 ], [ -101.22321, 20.55935 ], [ -101.22335, 20.56019 ], [ -101.22371, 20.56225 ], [ -101.22374, 20.56238 ], [ -101.22391, 20.56345 ], [ -101.22394, 20.56362 ], [ -101.22397, 20.5638 ], [ -101.224, 20.564 ], [ -101.22416, 20.56474 ], [ -101.22432, 20.56543 ], [ -101.22436, 20.56558 ], [ -101.2244, 20.56575 ], [ -101.22538, 20.57012 ], [ -101.22541, 20.57023 ], [ -101.22553, 20.57076 ], [ -101.22569, 20.57142 ], [ -101.22581, 20.572 ], [ -101.22593, 20.57251 ], [ -101.2261, 20.57327 ], [ -101.2262, 20.5737 ], [ -101.22628, 20.57408 ], [ -101.22643, 20.57474 ], [ -101.22652, 20.57514 ], [ -101.22663, 20.57563 ], [ -101.2267, 20.57593 ], [ -101.2269, 20.57683 ], [ -101.22714, 20.5779 ], [ -101.22723, 20.57831 ], [ -101.22724, 20.57839 ], [ -101.22728, 20.57863 ], [ -101.22738, 20.57928 ], [ -101.22745, 20.57969 ], [ -101.22749, 20.57986 ], [ -101.22754, 20.58009 ], [ -101.22771, 20.58086 ], [ -101.22792, 20.58175 ], [ -101.22804, 20.58227 ], [ -101.22809, 20.58248 ], [ -101.22813, 20.5827 ], [ -101.22822, 20.5831 ], [ -101.22836, 20.58373 ], [ -101.22859, 20.58479 ], [ -101.22873, 20.5855 ], [ -101.2288, 20.58606 ], [ -101.22885, 20.58652 ], [ -101.22891, 20.58699 ], [ -101.22898, 20.58755 ], [ -101.22903, 20.58802 ], [ -101.22907, 20.58832 ], [ -101.22911, 20.58854 ], [ -101.22918, 20.58876 ], [ -101.22925, 20.58895 ], [ -101.22934, 20.58916 ], [ -101.22946, 20.5894 ], [ -101.22958, 20.5896 ], [ -101.22966, 20.58971 ], [ -101.22976, 20.58984 ], [ -101.22981, 20.5899 ], [ -101.22988, 20.59 ], [ -101.23, 20.59012 ], [ -101.23009, 20.59021 ], [ -101.23024, 20.59036 ], [ -101.23042, 20.59052 ], [ -101.23063, 20.59071 ], [ -101.23105, 20.5911 ], [ -101.23108, 20.59113 ], [ -101.23146, 20.59147 ], [ -101.23154, 20.59155 ], [ -101.23239, 20.59236 ], [ -101.23298, 20.5929 ], [ -101.235, 20.59477 ], [ -101.2354, 20.59515 ], [ -101.23575, 20.59547 ], [ -101.23786, 20.59743 ], [ -101.23858, 20.59809 ], [ -101.24086, 20.6002 ], [ -101.24105, 20.60038 ], [ -101.24217, 20.60146 ], [ -101.24271, 20.60195 ], [ -101.24291, 20.60213 ], [ -101.2432, 20.6024 ], [ -101.24388, 20.60303 ], [ -101.24409, 20.60323 ], [ -101.24453, 20.60362 ], [ -101.24514, 20.60419 ], [ -101.24555, 20.60457 ], [ -101.24651, 20.60547 ], [ -101.24718, 20.6061 ], [ -101.24908, 20.60789 ], [ -101.24989, 20.60866 ], [ -101.25013, 20.60888 ], [ -101.25062, 20.60934 ], [ -101.25105, 20.60973 ], [ -101.25148, 20.61013 ], [ -101.25411, 20.61252 ], [ -101.25508, 20.61343 ], [ -101.25651, 20.61476 ], [ -101.25822, 20.61636 ], [ -101.25898, 20.61708 ], [ -101.25921, 20.61729 ], [ -101.25953, 20.6176 ], [ -101.261, 20.61895 ], [ -101.26147, 20.61937 ], [ -101.26198, 20.61985 ], [ -101.26247, 20.6203 ], [ -101.26296, 20.62077 ], [ -101.26342, 20.6212 ], [ -101.26367, 20.62141 ], [ -101.26398, 20.62169 ], [ -101.26441, 20.62209 ], [ -101.2647, 20.62236 ], [ -101.26521, 20.62283 ], [ -101.26581, 20.62339 ], [ -101.26618, 20.62373 ], [ -101.26633, 20.62387 ], [ -101.26644, 20.62398 ], [ -101.26655, 20.62408 ], [ -101.26717, 20.62466 ], [ -101.26721, 20.62469 ], [ -101.26725, 20.62473 ], [ -101.26732, 20.6248 ], [ -101.26751, 20.62498 ], [ -101.26769, 20.62514 ], [ -101.26792, 20.62536 ], [ -101.26846, 20.62586 ], [ -101.26878, 20.62615 ], [ -101.26887, 20.62624 ], [ -101.26896, 20.62632 ], [ -101.26998, 20.62727 ], [ -101.27034, 20.6276 ], [ -101.27102, 20.62824 ], [ -101.27175, 20.62891 ], [ -101.27179, 20.62895 ], [ -101.27225, 20.62938 ], [ -101.27276, 20.62986 ], [ -101.27327, 20.63033 ], [ -101.27369, 20.63072 ], [ -101.27439, 20.63137 ], [ -101.27491, 20.63185 ], [ -101.27571, 20.63259 ], [ -101.27584, 20.63271 ], [ -101.27636, 20.63319 ], [ -101.27675, 20.63355 ], [ -101.27727, 20.63404 ], [ -101.27785, 20.63458 ], [ -101.2784, 20.63509 ], [ -101.27908, 20.63572 ], [ -101.27956, 20.63616 ], [ -101.28067, 20.63723 ], [ -101.28182, 20.6383 ], [ -101.28231, 20.63876 ], [ -101.28246, 20.6389 ], [ -101.28426, 20.64059 ], [ -101.28448, 20.64078 ], [ -101.28498, 20.6412 ], [ -101.28533, 20.64152 ], [ -101.28605, 20.64219 ], [ -101.28635, 20.64248 ], [ -101.28666, 20.64277 ], [ -101.28684, 20.64293 ], [ -101.28701, 20.64309 ], [ -101.28767, 20.6437 ], [ -101.28852, 20.64449 ], [ -101.28954, 20.64543 ], [ -101.29012, 20.64598 ], [ -101.29044, 20.64627 ], [ -101.29099, 20.64679 ], [ -101.29151, 20.64727 ], [ -101.29162, 20.64736 ], [ -101.2917, 20.64744 ], [ -101.29253, 20.64821 ], [ -101.29288, 20.64854 ], [ -101.29344, 20.64906 ], [ -101.29365, 20.64924 ], [ -101.29413, 20.6497 ], [ -101.29462, 20.65017 ], [ -101.29485, 20.65038 ], [ -101.29575, 20.65121 ], [ -101.29626, 20.65169 ], [ -101.29722, 20.65258 ], [ -101.29825, 20.65352 ], [ -101.29866, 20.65389 ], [ -101.29881, 20.65404 ], [ -101.29896, 20.65418 ], [ -101.29897, 20.65419 ], [ -101.29913, 20.65435 ], [ -101.29953, 20.6547 ], [ -101.30021, 20.65536 ], [ -101.30054, 20.65568 ], [ -101.30091, 20.65606 ], [ -101.3011, 20.65624 ], [ -101.30115, 20.65629 ], [ -101.30153, 20.65662 ], [ -101.30138, 20.65675 ], [ -101.30127, 20.65693 ], [ -101.30088, 20.65785 ], [ -101.30061, 20.65835 ], [ -101.30041, 20.65877 ], [ -101.30015, 20.6593 ], [ -101.29968, 20.66022 ], [ -101.29964, 20.6603 ], [ -101.29831, 20.65978 ], [ -101.29821, 20.65976 ], [ -101.29812, 20.65974 ], [ -101.29805, 20.65974 ], [ -101.29804, 20.65974 ], [ -101.298, 20.65975 ], [ -101.29791, 20.65978 ], [ -101.29787, 20.6598 ], [ -101.29778, 20.65984 ], [ -101.29774, 20.65986 ], [ -101.29762, 20.65992 ], [ -101.29742, 20.66001 ], [ -101.2975, 20.66017 ], [ -101.29753, 20.66024 ], [ -101.29756, 20.66031 ], [ -101.29758, 20.6604 ], [ -101.29761, 20.66052 ], [ -101.29767, 20.6609 ], [ -101.29772, 20.66105 ], [ -101.29776, 20.66124 ], [ -101.29781, 20.66159 ], [ -101.29788, 20.66202 ], [ -101.29791, 20.66249 ], [ -101.2981, 20.66253 ], [ -101.29817, 20.66305 ], [ -101.29843, 20.665 ], [ -101.29844, 20.66511 ], [ -101.29865, 20.66677 ], [ -101.2987, 20.66736 ], [ -101.2987, 20.66739 ], [ -101.29869, 20.66789 ], [ -101.29869, 20.66822 ], [ -101.29866, 20.66872 ], [ -101.29852, 20.67062 ], [ -101.29849, 20.67106 ], [ -101.29835, 20.67224 ], [ -101.29831, 20.67253 ], [ -101.29824, 20.67297 ], [ -101.29814, 20.67394 ], [ -101.29814, 20.67439 ], [ -101.29809, 20.67512 ], [ -101.29811, 20.67548 ], [ -101.29816, 20.67582 ], [ -101.2983, 20.6764 ], [ -101.29837, 20.67658 ], [ -101.29852, 20.67692 ], [ -101.29873, 20.67731 ], [ -101.29899, 20.67766 ], [ -101.30038, 20.67932 ], [ -101.30083, 20.67987 ], [ -101.3009, 20.67995 ], [ -101.30094, 20.67998 ], [ -101.30096, 20.68001 ], [ -101.30129, 20.68039 ], [ -101.30203, 20.68122 ], [ -101.30268, 20.68195 ], [ -101.30336, 20.68272 ], [ -101.30365, 20.68305 ], [ -101.30382, 20.68324 ], [ -101.30422, 20.68371 ], [ -101.30481, 20.68443 ], [ -101.30536, 20.68513 ], [ -101.30579, 20.68567 ], [ -101.30583, 20.68574 ], [ -101.30588, 20.68585 ], [ -101.30615, 20.68618 ], [ -101.30635, 20.68641 ], [ -101.30648, 20.68656 ], [ -101.30803, 20.6884 ], [ -101.3082, 20.6886 ], [ -101.30864, 20.68914 ], [ -101.31118, 20.69218 ], [ -101.31132, 20.69234 ], [ -101.31142, 20.69245 ], [ -101.31259, 20.69384 ], [ -101.31272, 20.69399 ], [ -101.31279, 20.69407 ], [ -101.31301, 20.69433 ], [ -101.31333, 20.69473 ], [ -101.31374, 20.6952 ], [ -101.31384, 20.69531 ], [ -101.31413, 20.69564 ], [ -101.3143, 20.69587 ], [ -101.31463, 20.69625 ], [ -101.31679, 20.69883 ], [ -101.31704, 20.69912 ], [ -101.31726, 20.69938 ], [ -101.31755, 20.69973 ], [ -101.31823, 20.70056 ], [ -101.31932, 20.70182 ], [ -101.31992, 20.70254 ], [ -101.32033, 20.70304 ], [ -101.32058, 20.70332 ], [ -101.32161, 20.70457 ], [ -101.32242, 20.7055 ], [ -101.32265, 20.70578 ], [ -101.32284, 20.706 ], [ -101.32307, 20.70627 ], [ -101.32325, 20.70649 ], [ -101.32391, 20.70725 ], [ -101.32416, 20.70755 ], [ -101.32431, 20.70773 ], [ -101.32456, 20.70803 ], [ -101.3254, 20.70901 ], [ -101.3272, 20.71114 ], [ -101.32834, 20.71258 ], [ -101.33089, 20.71562 ], [ -101.33177, 20.71686 ], [ -101.33237, 20.71767 ], [ -101.33259, 20.71798 ], [ -101.33317, 20.7188 ], [ -101.33404, 20.72004 ], [ -101.33508, 20.72154 ], [ -101.33625, 20.72315 ], [ -101.33714, 20.72439 ], [ -101.33733, 20.72466 ], [ -101.33787, 20.72548 ], [ -101.34054, 20.72909 ], [ -101.34087, 20.72954 ], [ -101.34168, 20.73065 ], [ -101.34168, 20.73066 ], [ -101.34185, 20.73091 ], [ -101.342, 20.73114 ], [ -101.34216, 20.73145 ], [ -101.34223, 20.73166 ], [ -101.34227, 20.73182 ], [ -101.3423, 20.73196 ], [ -101.3423, 20.73207 ], [ -101.34229, 20.73219 ], [ -101.34228, 20.73229 ], [ -101.34227, 20.7324 ], [ -101.34225, 20.73251 ], [ -101.34221, 20.73292 ], [ -101.34197, 20.73354 ], [ -101.34171, 20.73439 ], [ -101.34163, 20.73476 ], [ -101.34159, 20.73515 ], [ -101.34157, 20.73559 ], [ -101.34158, 20.73592 ], [ -101.34159, 20.73616 ], [ -101.34162, 20.73654 ], [ -101.34164, 20.73687 ], [ -101.34164, 20.73707 ], [ -101.34161, 20.7373 ], [ -101.34144, 20.73801 ], [ -101.34129, 20.73872 ], [ -101.34055, 20.74199 ], [ -101.34047, 20.74238 ], [ -101.34043, 20.74257 ], [ -101.34038, 20.74281 ], [ -101.34036, 20.74288 ], [ -101.34026, 20.74325 ], [ -101.34015, 20.74373 ], [ -101.33992, 20.74474 ], [ -101.33984, 20.74513 ], [ -101.33973, 20.74557 ], [ -101.33932, 20.74739 ], [ -101.33927, 20.74765 ], [ -101.33922, 20.7479 ], [ -101.33917, 20.74814 ], [ -101.33909, 20.74851 ], [ -101.3389, 20.74932 ], [ -101.3387, 20.75018 ], [ -101.33863, 20.75049 ], [ -101.33854, 20.75087 ], [ -101.33848, 20.75113 ], [ -101.33842, 20.75138 ], [ -101.33825, 20.75224 ], [ -101.33815, 20.75274 ], [ -101.33797, 20.75352 ], [ -101.33788, 20.75388 ], [ -101.33773, 20.75456 ], [ -101.33754, 20.75537 ], [ -101.33681, 20.75857 ], [ -101.33654, 20.75977 ], [ -101.33643, 20.76029 ], [ -101.33633, 20.7608 ], [ -101.33626, 20.76105 ], [ -101.3362, 20.76128 ], [ -101.33615, 20.76159 ], [ -101.3361, 20.7618 ], [ -101.33597, 20.76232 ], [ -101.33587, 20.76279 ], [ -101.33572, 20.76339 ], [ -101.33521, 20.76572 ], [ -101.33512, 20.76612 ], [ -101.33497, 20.76679 ], [ -101.33479, 20.7676 ], [ -101.3346, 20.76848 ], [ -101.33445, 20.76915 ], [ -101.33443, 20.76932 ], [ -101.3344, 20.76953 ], [ -101.3344, 20.76971 ], [ -101.33439, 20.76987 ], [ -101.33439, 20.77022 ], [ -101.33441, 20.7704 ], [ -101.33443, 20.77055 ], [ -101.33449, 20.77085 ], [ -101.33456, 20.77113 ], [ -101.3347, 20.77167 ], [ -101.33481, 20.77205 ], [ -101.33493, 20.77244 ], [ -101.33495, 20.77256 ], [ -101.33497, 20.77267 ], [ -101.33499, 20.77292 ], [ -101.33501, 20.77311 ], [ -101.33502, 20.77333 ], [ -101.33502, 20.7736 ], [ -101.33501, 20.77375 ], [ -101.335, 20.77386 ], [ -101.33496, 20.7741 ], [ -101.33491, 20.77436 ], [ -101.33487, 20.77454 ], [ -101.33484, 20.77469 ], [ -101.3348, 20.77486 ], [ -101.33474, 20.77503 ], [ -101.33467, 20.77523 ], [ -101.33461, 20.77539 ], [ -101.33453, 20.77556 ], [ -101.33441, 20.77582 ], [ -101.33412, 20.7765 ], [ -101.33398, 20.77684 ], [ -101.33376, 20.7773 ], [ -101.33354, 20.77779 ], [ -101.33259, 20.77989 ], [ -101.33168, 20.78199 ], [ -101.33133, 20.78275 ], [ -101.33122, 20.78301 ], [ -101.3311, 20.78328 ], [ -101.33044, 20.78473 ], [ -101.33029, 20.78505 ], [ -101.3299, 20.78596 ], [ -101.32955, 20.78675 ], [ -101.32932, 20.78717 ], [ -101.32899, 20.78794 ], [ -101.32855, 20.78896 ], [ -101.32784, 20.79054 ], [ -101.32781, 20.79062 ], [ -101.32724, 20.79188 ], [ -101.32701, 20.7924 ], [ -101.3266, 20.79334 ], [ -101.32611, 20.79445 ], [ -101.32606, 20.79456 ], [ -101.32605, 20.79457 ], [ -101.3254, 20.79604 ], [ -101.32533, 20.7962 ], [ -101.32515, 20.79668 ], [ -101.32499, 20.79716 ], [ -101.32494, 20.79741 ], [ -101.3248, 20.79799 ], [ -101.32479, 20.79805 ], [ -101.32441, 20.79983 ], [ -101.32413, 20.80109 ], [ -101.32366, 20.80336 ], [ -101.32353, 20.80395 ], [ -101.32338, 20.80467 ], [ -101.32337, 20.80469 ], [ -101.32333, 20.80486 ], [ -101.32303, 20.80631 ], [ -101.32286, 20.80707 ], [ -101.32255, 20.80861 ], [ -101.32217, 20.81038 ], [ -101.3221, 20.81069 ], [ -101.32187, 20.81171 ], [ -101.32181, 20.81208 ], [ -101.32177, 20.81226 ], [ -101.32174, 20.81244 ], [ -101.32126, 20.815 ], [ -101.321, 20.81644 ], [ -101.32099, 20.81648 ], [ -101.32096, 20.8166 ], [ -101.32096, 20.81661 ], [ -101.32096, 20.81663 ], [ -101.32094, 20.8167 ], [ -101.32093, 20.81677 ], [ -101.3209, 20.81688 ], [ -101.32085, 20.81709 ], [ -101.32077, 20.81744 ], [ -101.32076, 20.81749 ], [ -101.32074, 20.81757 ], [ -101.32072, 20.81769 ], [ -101.32071, 20.81772 ], [ -101.32068, 20.81787 ], [ -101.32065, 20.81803 ], [ -101.32065, 20.81804 ], [ -101.32064, 20.81807 ], [ -101.32062, 20.81817 ], [ -101.32035, 20.8193 ], [ -101.31988, 20.82114 ], [ -101.31979, 20.82153 ], [ -101.31969, 20.82188 ], [ -101.31964, 20.82211 ], [ -101.31959, 20.82237 ], [ -101.31939, 20.82321 ], [ -101.31918, 20.82428 ], [ -101.31885, 20.82583 ], [ -101.31815, 20.82909 ], [ -101.31774, 20.83101 ], [ -101.31716, 20.83367 ], [ -101.31693, 20.83477 ], [ -101.31661, 20.83631 ] ] } }
]
}
