{"type":"FeatureCollection","crs" : {
    "type" : "name",
    "properties" : {
      "name" : "urn:ogc:def:crs:EPSG::4326"
    }
  },
"features":[
{
	"type":"Feature","id":"0", "properties": {
		"distance":	249648.4,
		"duration":	12403.964998779367,
		"summary":	"220min, 260.65km",
		"name":"Carr Toluca - México 63, Mina Vieja, 05700 Ciudad de México, CDMX - Parque Industrial Queretaro, Carretera Queretaro - San Luis Potosí Km.28.5, Parque Industrial Queretaro, 76220 Santiago de Querétaro, Qro."
	},
	"geometry":{"type": "LineString", "coordinates":[[-99.31684,19.32787],[-99.31668000000001,19.3285],[-99.31663,19.32873],[-99.31661,19.32889],[-99.31661,19.32899],[-99.31661,19.32914],[-99.31664000000002,19.32944],[-99.31665000000001,19.32964],[-99.31658,19.32974],[-99.31656,19.32982],[-99.31653,19.32993],[-99.31648000000001,19.33005],[-99.31643000000001,19.33016],[-99.31636999999999,19.33026],[-99.31626000000001,19.33044],[-99.31611,19.33066],[-99.31603999999999,19.33076],[-99.31598000000001,19.33082],[-99.3159,19.3309],[-99.31583000000001,19.33095],[-99.31577,19.33099],[-99.31568,19.33102],[-99.3156,19.33104],[-99.31547000000002,19.33106],[-99.31527,19.33115],[-99.31521000000001,19.33119],[-99.31509000000001,19.33126],[-99.31504000000001,19.3313],[-99.31498999999998,19.33135],[-99.31493,19.33142],[-99.31473,19.33168],[-99.31464,19.33186],[-99.31459999999998,19.33194],[-99.31452,19.33206],[-99.31444000000001,19.33218],[-99.31395000000001,19.3329],[-99.31395000000001,19.33292],[-99.31394,19.33295],[-99.31392999999999,19.33298],[-99.31392999999999,19.33306],[-99.31364000000002,19.33335],[-99.31357,19.33343],[-99.31350999999999,19.33351],[-99.3134,19.33367],[-99.31336000000002,19.33374],[-99.31315999999998,19.33406],[-99.31315000000001,19.33408],[-99.31303,19.33422],[-99.31289,19.33435],[-99.3128,19.33444],[-99.31267,19.33454],[-99.3126,19.33459],[-99.31247999999999,19.33465],[-99.31184,19.33497],[-99.31131999999998,19.33512],[-99.31114999999998,19.33516],[-99.31094,19.33519],[-99.31075999999999,19.33521],[-99.31049,19.33521],[-99.31031000000002,19.33521],[-99.31015000000001,19.3352],[-99.30995,19.33516],[-99.30974000000001,19.33512],[-99.30938,19.33506],[-99.30787000000001,19.33481],[-99.3069,19.33465],[-99.30646,19.33458],[-99.30603999999998,19.33451],[-99.30571000000001,19.33446],[-99.30533,19.33443],[-99.30506,19.33441],[-99.30477999999999,19.33441],[-99.30447999999998,19.33442],[-99.30419000000002,19.33445],[-99.30405,19.33447],[-99.30391,19.33448],[-99.30377,19.3345],[-99.3034,19.3346],[-99.30328,19.33463],[-99.30313,19.33468],[-99.30291,19.33474],[-99.30275000000002,19.3348],[-99.30262000000001,19.33485],[-99.30236999999998,19.33496],[-99.30211,19.33508],[-99.30149,19.3354],[-99.30073,19.3358],[-99.30072,19.33581],[-99.30051,19.33592],[-99.30019999999999,19.33608],[-99.29991999999999,19.33623],[-99.29969999999999,19.33634],[-99.29953999999998,19.33642],[-99.29942000000001,19.33649],[-99.29930999999999,19.33655],[-99.29919,19.33662],[-99.29907,19.3367],[-99.29902,19.33673],[-99.29895999999999,19.33677],[-99.2989,19.33682],[-99.29884,19.33686],[-99.29874,19.33694],[-99.29863999999999,19.33704],[-99.29854,19.33714],[-99.29845,19.33725],[-99.29836000000002,19.33736],[-99.29828000000001,19.33747],[-99.29820000000001,19.33758],[-99.29813,19.3377],[-99.298,19.33794],[-99.29786000000001,19.33818],[-99.2978,19.3383],[-99.29773,19.33842],[-99.29761000000001,19.33865],[-99.29754,19.33877],[-99.29746999999999,19.3389],[-99.2974,19.33901],[-99.29733,19.33911],[-99.29725999999998,19.33923],[-99.29722,19.33928],[-99.29718,19.33934],[-99.29713,19.3394],[-99.29708999999998,19.33945],[-99.29705,19.3395],[-99.29701,19.33955],[-99.29691,19.33964],[-99.29682,19.33974],[-99.29671999999999,19.33983],[-99.29661,19.33992],[-99.2965,19.34],[-99.29639,19.34008],[-99.29628,19.34016],[-99.29606,19.3403],[-99.29594,19.34038],[-99.29571,19.34052],[-99.29535999999999,19.34073],[-99.29525000000001,19.34081],[-99.29518,19.34085],[-99.29513999999999,19.34089],[-99.29503000000001,19.34096],[-99.29496999999999,19.34102],[-99.29491999999999,19.34106],[-99.29482,19.34114],[-99.29475999999998,19.34119],[-99.29472,19.34124],[-99.29463,19.34133],[-99.29453000000001,19.34144],[-99.29439000000001,19.34162],[-99.29376000000001,19.34248],[-99.29353999999998,19.34276],[-99.29351,19.3428],[-99.29340999999999,19.34292],[-99.29333,19.34301],[-99.29322999999999,19.34312],[-99.29311,19.34322],[-99.29302,19.34329],[-99.29290999999999,19.34337],[-99.29279,19.34345],[-99.29264999999998,19.34353],[-99.2925,19.3436],[-99.29228000000001,19.3437],[-99.29197999999998,19.3438],[-99.29156,19.34391],[-99.29153000000001,19.34392],[-99.29069999999999,19.34415],[-99.29045000000001,19.34422],[-99.28966,19.34446],[-99.28922,19.3446],[-99.28904,19.34465],[-99.28885999999999,19.34472],[-99.28867,19.34478],[-99.28843999999999,19.34488],[-99.28825999999998,19.34496],[-99.28811,19.34505],[-99.28803000000001,19.34512],[-99.28795,19.34517],[-99.28787,19.34523],[-99.28777,19.34531],[-99.28766,19.34541],[-99.28753,19.34554],[-99.28741999999998,19.34566],[-99.28731000000001,19.34579],[-99.28724,19.34588],[-99.28719000000001,19.34595],[-99.28715,19.34601],[-99.28704000000001,19.34617],[-99.28677,19.34656],[-99.28664999999998,19.34673],[-99.28655999999999,19.34684],[-99.28649,19.34693],[-99.28644,19.34699],[-99.28637999999999,19.34705],[-99.28630999999999,19.34713],[-99.28621,19.34722],[-99.28606000000001,19.34735],[-99.28592999999999,19.34745],[-99.28583,19.34752],[-99.28576,19.34756],[-99.28568,19.34761],[-99.2855,19.3477],[-99.28536000000001,19.34775],[-99.28528,19.34778],[-99.2852,19.34781],[-99.28504,19.34785],[-99.28496,19.34787],[-99.28486000000001,19.34789],[-99.28456,19.34793],[-99.28433,19.34796],[-99.28400000000001,19.348],[-99.2835,19.34805],[-99.28302999999998,19.3481],[-99.28268,19.34813],[-99.28246999999999,19.34816],[-99.28233,19.34819],[-99.28216000000001,19.34823],[-99.28198999999999,19.34827],[-99.28182,19.34832],[-99.28180999999998,19.34832],[-99.28169000000001,19.34837],[-99.28162,19.34839],[-99.28152000000002,19.34844],[-99.28152000000002,19.34845],[-99.28145000000001,19.34849],[-99.28136000000001,19.34854],[-99.28124,19.34862],[-99.28116,19.34868],[-99.28104,19.34878],[-99.28094,19.34887],[-99.2809,19.34892],[-99.28084,19.34898],[-99.28077,19.34907],[-99.28073000000001,19.34912],[-99.28069000000001,19.34918],[-99.28063000000002,19.34927],[-99.28060000000001,19.34932],[-99.28055999999999,19.34939],[-99.2805,19.34951],[-99.28044,19.34965],[-99.28034,19.34993],[-99.28017,19.3505],[-99.27982,19.35167],[-99.27967,19.35213],[-99.27952999999998,19.35258],[-99.2794,19.35303],[-99.27930999999998,19.35332],[-99.27930000000001,19.35336],[-99.27923,19.35358],[-99.27918999999999,19.35373],[-99.27912000000002,19.35393],[-99.27904,19.35412],[-99.27898999999999,19.35422],[-99.27895,19.3543],[-99.27889,19.35444],[-99.27875,19.35467],[-99.27865,19.35483],[-99.2786,19.35491],[-99.27856,19.35497],[-99.27839,19.3552],[-99.27815,19.3555],[-99.27799,19.3557],[-99.27764000000001,19.35613],[-99.27757999999999,19.35621],[-99.27733000000001,19.35651],[-99.27718000000002,19.35669],[-99.27716,19.35671],[-99.27715000000001,19.35673],[-99.27706000000001,19.35683],[-99.27692999999999,19.35697],[-99.27668999999999,19.3572],[-99.27655,19.35734],[-99.27635999999998,19.35751],[-99.2762,19.35764],[-99.27603000000001,19.35777],[-99.27585999999998,19.3579],[-99.27563999999998,19.35804],[-99.27526,19.35827],[-99.27515,19.35834],[-99.27323999999999,19.3595],[-99.27241000000001,19.36],[-99.27221,19.36013],[-99.27176,19.36039],[-99.27086,19.36093],[-99.26937,19.3618],[-99.26921,19.3619],[-99.26918999999998,19.36191],[-99.26907000000001,19.36198],[-99.26900999999999,19.36202],[-99.26895999999999,19.36205],[-99.26889,19.36208],[-99.26886,19.3621],[-99.26882999999999,19.36212],[-99.26869000000001,19.3622],[-99.26834,19.36241],[-99.26790999999999,19.36266],[-99.26776,19.36275],[-99.26767,19.3628],[-99.26747,19.36292],[-99.26735999999998,19.36299],[-99.26725999999999,19.36307],[-99.26722,19.36309],[-99.26712000000002,19.36317],[-99.26706999999999,19.36322],[-99.26701999999999,19.36326],[-99.26694999999999,19.36333],[-99.26688,19.3634],[-99.26684000000002,19.36346],[-99.2668,19.36351],[-99.26673999999998,19.36359],[-99.26666,19.36372],[-99.26656999999999,19.36388],[-99.26653,19.36398],[-99.26649000000001,19.36408],[-99.26646000000001,19.36418],[-99.26645000000002,19.36425],[-99.26643,19.36435],[-99.26641000000001,19.36442],[-99.26639999999999,19.36448],[-99.26639999999999,19.36455],[-99.26639,19.36461],[-99.26639,19.36467],[-99.26639,19.36474],[-99.26639,19.36478],[-99.26639,19.36487],[-99.26639999999999,19.36494],[-99.26647,19.36544],[-99.26649999999999,19.3656],[-99.26654000000001,19.36586],[-99.26658999999999,19.36613],[-99.26664,19.36644],[-99.26667999999999,19.36673],[-99.26671,19.36694],[-99.26672000000001,19.36714],[-99.26672000000001,19.36727],[-99.26672000000001,19.36739],[-99.26672000000001,19.36747],[-99.26671,19.36758],[-99.26668999999998,19.36769],[-99.26667000000002,19.36781],[-99.26664,19.36792],[-99.26663000000001,19.36798],[-99.26661,19.36804],[-99.26656999999999,19.36816],[-99.26655,19.36821],[-99.26649999999999,19.36835],[-99.26648,19.36841],[-99.26645000000002,19.3685],[-99.26562000000001,19.37049],[-99.26555000000001,19.37065],[-99.2655,19.37078],[-99.26545999999999,19.37088],[-99.26539,19.37102],[-99.26527,19.37125],[-99.26521,19.37134],[-99.26514,19.37144],[-99.2651,19.3715],[-99.26503,19.37159],[-99.26497999999999,19.37166],[-99.26488000000001,19.37177],[-99.26476,19.37189],[-99.2646,19.37203],[-99.26452000000001,19.37209],[-99.26443999999999,19.37216],[-99.26437,19.37222],[-99.26382,19.37263],[-99.26362000000002,19.37278],[-99.26346000000001,19.37288],[-99.26324000000001,19.37303],[-99.26269000000001,19.37339],[-99.26234999999998,19.37361],[-99.26217,19.37373],[-99.26186,19.37394],[-99.26161000000001,19.37411],[-99.26115,19.37445],[-99.261,19.37456],[-99.2608,19.3747],[-99.26066,19.37481],[-99.26018999999998,19.37516],[-99.2597,19.37554],[-99.25921,19.3759],[-99.25905,19.376],[-99.25897000000001,19.37606],[-99.25883999999999,19.37614],[-99.25869,19.37623],[-99.25857000000001,19.3763],[-99.25801000000001,19.37658],[-99.25639,19.37741],[-99.25604,19.37759],[-99.25581,19.37771],[-99.25547,19.37788],[-99.25528999999999,19.37796],[-99.25458,19.3783],[-99.25421,19.37847],[-99.25412000000002,19.37852],[-99.25386,19.37865],[-99.2537,19.37873],[-99.25322999999999,19.37901],[-99.25315999999999,19.37906],[-99.25257000000001,19.37947],[-99.25228000000001,19.37967],[-99.25194999999999,19.3799],[-99.25142,19.38027],[-99.25127999999999,19.38038],[-99.25049,19.38092],[-99.24908000000001,19.38191],[-99.24806000000001,19.38262],[-99.24766,19.3829],[-99.24751000000001,19.38299],[-99.24676,19.38349],[-99.24636,19.38372],[-99.24628000000001,19.38377],[-99.24617999999998,19.38382],[-99.24612999999998,19.38384],[-99.24581000000001,19.38401],[-99.24561999999999,19.38411],[-99.24551000000001,19.38416],[-99.24539000000002,19.38421],[-99.24531,19.38424],[-99.24511999999999,19.38432],[-99.24494999999999,19.38439],[-99.24477999999999,19.38447],[-99.24456999999998,19.3846],[-99.24438000000002,19.38475],[-99.2443,19.38483],[-99.24419,19.38494],[-99.2441,19.38506],[-99.24394,19.38532],[-99.24387,19.38543],[-99.24341,19.38618],[-99.24321999999999,19.38646],[-99.24311000000002,19.38658],[-99.2431,19.38659],[-99.24305,19.38664],[-99.24299000000002,19.38669],[-99.24285999999999,19.38678],[-99.2427,19.38687],[-99.24266999999999,19.38691],[-99.24265,19.38694],[-99.24235,19.38711],[-99.24227999999999,19.38715],[-99.24211,19.38725],[-99.24187000000001,19.38742],[-99.24165000000001,19.38761],[-99.24155999999999,19.3877],[-99.24139,19.38785],[-99.24122999999999,19.38797],[-99.24113,19.38804],[-99.24099,19.38812],[-99.24076,19.38825],[-99.24021000000001,19.38854],[-99.24008000000001,19.38862],[-99.23999000000002,19.38867],[-99.23990000000001,19.38874],[-99.23976999999999,19.38886],[-99.23968000000001,19.38895],[-99.23963000000001,19.38903],[-99.23957,19.3891],[-99.23952,19.38919],[-99.23943,19.38935],[-99.23931,19.38962],[-99.23924,19.38982],[-99.23882999999999,19.39105],[-99.23878999999998,19.39119],[-99.23877000000002,19.39127],[-99.23876,19.39134],[-99.23876,19.39141],[-99.23875,19.39149],[-99.23874000000001,19.39175],[-99.23875,19.39211],[-99.23875,19.39227],[-99.23875,19.39237],[-99.23874000000001,19.39243],[-99.23873,19.39247],[-99.23872000000002,19.39251],[-99.23869000000001,19.39257],[-99.23866,19.39264],[-99.23860999999999,19.39273],[-99.23859,19.39277],[-99.23855000000002,19.39282],[-99.23848,19.3929],[-99.23839999999998,19.39299],[-99.23835,19.39305],[-99.23826,19.39314],[-99.23813,19.39325],[-99.23803,19.39332],[-99.23796,19.39336],[-99.23784999999998,19.39342],[-99.23772,19.39348],[-99.23763,19.3935],[-99.23755999999999,19.39352],[-99.23742,19.39354],[-99.23738,19.39354],[-99.23733999999999,19.39355],[-99.23722999999998,19.39355],[-99.23703,19.39354],[-99.23685,19.39353],[-99.2367,19.39351],[-99.23654999999999,19.39349],[-99.23644000000002,19.39349],[-99.23635,19.39349],[-99.23623000000001,19.39349],[-99.23609,19.3935],[-99.23591999999999,19.39353],[-99.23582999999999,19.39356],[-99.23569000000001,19.3936],[-99.23551999999999,19.39367],[-99.23535,19.39374],[-99.23517000000001,19.39382],[-99.23505000000002,19.39386],[-99.23479,19.39397],[-99.23439999999998,19.39413],[-99.23425,19.3942],[-99.23361000000001,19.39446],[-99.23311000000001,19.39466],[-99.23291999999999,19.39474],[-99.23285,19.39477],[-99.23277000000002,19.3948],[-99.23266999999999,19.39483],[-99.23259,19.39485],[-99.23248,19.39486],[-99.23239000000001,19.39487],[-99.23227,19.39488],[-99.23215999999999,19.39488],[-99.23203,19.39487],[-99.23159,19.39483],[-99.23141,19.39482],[-99.23129,19.39482],[-99.23121999999999,19.39483],[-99.23105,19.39485],[-99.23087,19.39489],[-99.23062,19.39498],[-99.23047,19.39503],[-99.23021,19.39512],[-99.23004,19.39518],[-99.22983999999998,19.39524],[-99.22947000000001,19.39533],[-99.22931,19.39536],[-99.22846,19.39553],[-99.22779,19.39567],[-99.22750000000001,19.39573],[-99.22738999999999,19.39575],[-99.22731,19.39576],[-99.22721999999999,19.39576],[-99.22716000000001,19.39577],[-99.22708,19.39577],[-99.22699999999999,19.39577],[-99.2269,19.39576],[-99.22681,19.39576],[-99.22626,19.39568],[-99.22602000000001,19.39565],[-99.2257,19.39562],[-99.22543000000002,19.39561],[-99.22521000000002,19.39561],[-99.22503,19.39562],[-99.22481999999999,19.39563],[-99.22462,19.39565],[-99.22442,19.39567],[-99.22421999999999,19.3957],[-99.22407,19.39572],[-99.22386,19.39576],[-99.22376,19.39578],[-99.22353,19.39583],[-99.22332,19.39589],[-99.22315,19.39594],[-99.22286,19.39604],[-99.22284999999999,19.39605],[-99.22266999999998,19.39612],[-99.22259,19.39615],[-99.22253000000001,19.39617],[-99.22230999999999,19.39627],[-99.22210999999999,19.39635],[-99.22168000000001,19.39648],[-99.22131,19.39661],[-99.22082000000002,19.39676],[-99.22054,19.39683],[-99.22018,19.39691],[-99.21977999999999,19.39704],[-99.21960000000001,19.39709],[-99.21850000000001,19.39744],[-99.2183,19.39751],[-99.21809,19.39758],[-99.21704999999999,19.39791],[-99.21655000000001,19.39807],[-99.21630999999999,19.39815],[-99.21589,19.39829],[-99.21559000000002,19.39838],[-99.21531999999999,19.39847],[-99.21495,19.3986],[-99.21487000000002,19.39863],[-99.21469999999999,19.3987],[-99.21402000000001,19.399],[-99.21389000000001,19.39905],[-99.21323,19.39939],[-99.21297,19.39953],[-99.21256,19.39975],[-99.21239,19.39983],[-99.21217,19.39996],[-99.21196999999999,19.40009],[-99.21165000000002,19.40029],[-99.21135,19.40051],[-99.21114,19.40067],[-99.21111999999999,19.40069],[-99.21109999999999,19.40071],[-99.21108,19.40072],[-99.21062000000001,19.401],[-99.21017999999999,19.40128],[-99.20981999999999,19.40151],[-99.20914999999999,19.40193],[-99.20860999999998,19.40227],[-99.20841,19.4024],[-99.20699999999998,19.40329],[-99.20677000000001,19.40344],[-99.20547999999999,19.40425],[-99.20471999999998,19.40473],[-99.20413000000001,19.40512],[-99.20329,19.40564],[-99.20296,19.40585],[-99.20291,19.40588],[-99.20275,19.40597],[-99.20247999999999,19.40613],[-99.20228,19.40624],[-99.20197,19.40642],[-99.20171999999998,19.40655],[-99.20129,19.40679],[-99.20108999999999,19.4069],[-99.20101,19.40695],[-99.20094,19.40698],[-99.20086000000001,19.40702],[-99.20085,19.40703],[-99.20074,19.40709],[-99.20072999999999,19.4071],[-99.2004,19.40728],[-99.20015999999998,19.40742],[-99.19998999999999,19.40751],[-99.19929999999999,19.40788],[-99.19911000000001,19.408],[-99.19858000000002,19.4083],[-99.19790999999999,19.40866],[-99.19773000000001,19.40876],[-99.19764000000002,19.4088],[-99.19731000000002,19.40898],[-99.19720999999998,19.40904],[-99.19705999999999,19.40911],[-99.19677,19.40927],[-99.19638000000001,19.4095],[-99.19623,19.40958],[-99.19611,19.40963],[-99.19597999999999,19.40969],[-99.19587000000001,19.40974],[-99.19580000000001,19.40977],[-99.19575999999999,19.40979],[-99.19573,19.4098],[-99.19556,19.4099],[-99.19508999999999,19.41015],[-99.19450999999999,19.41048],[-99.19434,19.41056],[-99.19418,19.41066],[-99.19412,19.41069],[-99.19405999999999,19.41072],[-99.19383000000001,19.41086],[-99.19361000000001,19.411],[-99.19233,19.4117],[-99.19202,19.41185],[-99.1919,19.41192],[-99.19179,19.41196],[-99.19170999999999,19.412],[-99.19158999999999,19.41204],[-99.191,19.41231],[-99.19035,19.4126],[-99.19034000000001,19.41261],[-99.19014000000001,19.41271],[-99.18997999999999,19.41279],[-99.18978,19.4129],[-99.18968,19.41285],[-99.18946,19.41277],[-99.18924,19.41269],[-99.18858999999999,19.41245],[-99.18810000000001,19.41228],[-99.18807,19.41227],[-99.18744,19.41206],[-99.18646,19.4117],[-99.18549,19.41136],[-99.18503999999999,19.41121],[-99.185,19.41119],[-99.18444,19.411],[-99.18436,19.41097],[-99.18324,19.41058],[-99.18307,19.41051],[-99.18292000000001,19.41046],[-99.18275999999999,19.4104],[-99.18254,19.41077],[-99.18235,19.41111],[-99.18228000000001,19.41121],[-99.18223,19.41128],[-99.18218,19.41135],[-99.18213,19.4114],[-99.18196,19.41163],[-99.18174000000001,19.41201],[-99.18135,19.41267],[-99.18116000000001,19.41299],[-99.18111,19.41307],[-99.18106,19.41315],[-99.18012,19.41484],[-99.17995999999999,19.41513],[-99.17941999999999,19.41608],[-99.17930999999999,19.41627],[-99.1789,19.41702],[-99.17816000000001,19.41834],[-99.17801,19.41861],[-99.17797000000002,19.41869],[-99.17791999999999,19.4188],[-99.17788,19.4189],[-99.17785000000002,19.41898],[-99.17782,19.41909],[-99.17779,19.41918],[-99.17777,19.41931],[-99.17774999999999,19.41942],[-99.17774,19.41953],[-99.17771999999999,19.41969],[-99.17771999999999,19.41984],[-99.17771999999999,19.41987],[-99.17773,19.42015],[-99.17776000000001,19.42085],[-99.17780000000002,19.42243],[-99.17780000000002,19.42257],[-99.17780000000002,19.42272],[-99.17779,19.42287],[-99.17778,19.42299],[-99.17777,19.42306],[-99.17774,19.42317],[-99.17771000000001,19.4233],[-99.17767000000001,19.42342],[-99.17765,19.42345],[-99.17762000000001,19.42354],[-99.17753999999998,19.4237],[-99.17749000000001,19.42379],[-99.17726999999999,19.42412],[-99.17704999999999,19.42445],[-99.17685999999999,19.42476],[-99.17653000000001,19.42533],[-99.17646000000002,19.42544],[-99.17615000000001,19.42592],[-99.17563999999999,19.42669],[-99.17534000000001,19.42711],[-99.17483,19.42786],[-99.17444999999999,19.42843],[-99.17422000000001,19.42879],[-99.17376,19.4295],[-99.17368999999999,19.42961],[-99.17367,19.42964],[-99.17359,19.42979],[-99.17337000000001,19.4302],[-99.17306000000001,19.43079],[-99.17274000000002,19.4314],[-99.17263999999999,19.4316],[-99.17245,19.43194],[-99.17234000000001,19.43213],[-99.17219000000002,19.43237],[-99.17212000000001,19.4325],[-99.17203999999998,19.43262],[-99.17165,19.43322],[-99.17133,19.4337],[-99.17124999999999,19.43381],[-99.17119,19.43391],[-99.17113000000002,19.43401],[-99.17059,19.43483],[-99.17018,19.43545],[-99.16985,19.43596],[-99.16968,19.43622],[-99.16939000000001,19.43665],[-99.16913999999999,19.43702],[-99.16889999999999,19.4374],[-99.16879999999999,19.43755],[-99.16865,19.43777],[-99.16848,19.43807],[-99.16836999999998,19.4383],[-99.16815,19.43875],[-99.16795000000001,19.43918],[-99.16739,19.44035],[-99.16704,19.44108],[-99.1669,19.44139],[-99.16668,19.44184],[-99.16651999999999,19.44216],[-99.16641999999999,19.44235],[-99.16634000000001,19.44248],[-99.16623,19.44265],[-99.1662,19.4427],[-99.16605,19.44293],[-99.16589999999999,19.44317],[-99.16587,19.44323],[-99.16574999999999,19.44345],[-99.16571999999999,19.4435],[-99.1657,19.44353],[-99.16569000000001,19.44356],[-99.16567000000001,19.44361],[-99.16562999999999,19.44371],[-99.16562,19.44376],[-99.16558999999998,19.44388],[-99.16557,19.44396],[-99.16549999999999,19.44428],[-99.16546,19.44445],[-99.16533,19.44507],[-99.16526,19.44539],[-99.16521,19.44561],[-99.16517,19.44576],[-99.16514000000001,19.44592],[-99.16507999999999,19.44618],[-99.16498,19.44662],[-99.16486999999998,19.4471],[-99.16481,19.44734],[-99.16474,19.44766],[-99.16468999999999,19.44787],[-99.16466,19.44801],[-99.16462,19.44814],[-99.16459999999999,19.44827],[-99.16446000000002,19.44888],[-99.16432,19.44948],[-99.16426,19.44975],[-99.16423,19.44987],[-99.16422,19.44998],[-99.16421,19.45006],[-99.16421,19.45078],[-99.16421,19.45112],[-99.16421,19.45142],[-99.16421,19.45173],[-99.16419999999998,19.45185],[-99.16419999999998,19.45194],[-99.16418,19.45205],[-99.16416,19.45226],[-99.16413000000001,19.45255],[-99.16408000000001,19.45308],[-99.16405,19.45334],[-99.16404,19.45342],[-99.16402999999998,19.45354],[-99.16397999999998,19.45392],[-99.16396000000002,19.45409],[-99.16388000000001,19.45463],[-99.16383,19.455],[-99.16379000000002,19.45525],[-99.16376,19.4555],[-99.16372,19.45571],[-99.16368999999999,19.45592],[-99.16361000000001,19.4563],[-99.16359,19.45639],[-99.16357000000002,19.45647],[-99.16355,19.45655],[-99.16346000000002,19.45699],[-99.1634,19.45727],[-99.16336000000001,19.45744],[-99.16328,19.45782],[-99.16325000000001,19.45793],[-99.16323,19.45803],[-99.16321000000001,19.45813],[-99.16312000000002,19.45852],[-99.1631,19.4586],[-99.16307000000002,19.45872],[-99.16304,19.45884],[-99.16298999999999,19.45898],[-99.16296,19.45905],[-99.16291999999999,19.45912],[-99.16287,19.45921],[-99.16279,19.45934],[-99.16276000000001,19.45938],[-99.1627,19.45946],[-99.16263999999998,19.45952],[-99.16257000000002,19.4596],[-99.16252000000002,19.45964],[-99.16249999999999,19.45967],[-99.16231999999999,19.45982],[-99.16204999999999,19.46004],[-99.16195999999999,19.46011],[-99.16188,19.46017],[-99.16155999999999,19.46042],[-99.16126,19.46066],[-99.16105,19.46086],[-99.16097999999998,19.46093],[-99.16087,19.46106],[-99.16079000000002,19.46116],[-99.16074000000002,19.46123],[-99.16071,19.46129],[-99.16065,19.46137],[-99.16054,19.46154],[-99.16043000000001,19.46177],[-99.16018,19.46223],[-99.16012000000002,19.46234],[-99.16005,19.46247],[-99.15995,19.46264],[-99.15984999999999,19.46282],[-99.15973,19.46299],[-99.15967000000001,19.46308],[-99.15962,19.46314],[-99.15955,19.46323],[-99.15939,19.46339],[-99.15936000000001,19.46343],[-99.1592,19.46355],[-99.15912,19.46362],[-99.15904000000001,19.46367],[-99.15897000000001,19.46371],[-99.15881,19.4638],[-99.15861,19.46388],[-99.15849,19.46393],[-99.15831,19.46398],[-99.15810999999999,19.46402],[-99.15795,19.46404],[-99.15783,19.46405],[-99.15772,19.46405],[-99.15761999999999,19.46404],[-99.15754,19.46404],[-99.15746000000002,19.46403],[-99.15733,19.46402],[-99.15713,19.46398],[-99.15667999999999,19.46389],[-99.15640000000002,19.46382],[-99.15612999999999,19.46375],[-99.15596999999998,19.46371],[-99.15579999999999,19.46367],[-99.15560000000001,19.46363],[-99.15533000000001,19.46358],[-99.15501000000002,19.46352],[-99.15432,19.46339],[-99.15394000000001,19.46332],[-99.15376999999999,19.46329],[-99.15362000000002,19.46326],[-99.15346999999998,19.46324],[-99.15303,19.46318],[-99.15290000000002,19.46316],[-99.15278000000001,19.46315],[-99.15247000000001,19.46311],[-99.15185999999999,19.46303],[-99.1515,19.46298],[-99.15122,19.46295],[-99.15093,19.46291],[-99.15075,19.4629],[-99.15067000000001,19.46289],[-99.15057000000002,19.4629],[-99.15042,19.4629],[-99.15026,19.46292],[-99.15016,19.46294],[-99.15003,19.46297],[-99.14979,19.46303],[-99.14974000000001,19.46305],[-99.14923000000002,19.46317],[-99.14888000000001,19.46325],[-99.14865,19.46331],[-99.14816999999999,19.46343],[-99.14794000000001,19.4635],[-99.14783,19.46353],[-99.14776999999999,19.46354],[-99.14763999999998,19.46357],[-99.14738,19.46362],[-99.14712999999999,19.46366],[-99.14684999999999,19.46372],[-99.14658,19.46378],[-99.14628999999999,19.46389],[-99.14595999999999,19.464],[-99.14576,19.46408],[-99.14527,19.46422],[-99.14504,19.46429],[-99.14463000000001,19.46443],[-99.14442,19.46449],[-99.14431999999999,19.46452],[-99.14427000000001,19.46453],[-99.1442,19.46454],[-99.1441,19.46455],[-99.14403,19.46455],[-99.14399,19.46454],[-99.14395999999999,19.46454],[-99.14390000000002,19.46453],[-99.14384999999999,19.46452],[-99.14378000000002,19.46449],[-99.14372,19.46447],[-99.14367,19.46445],[-99.14360000000001,19.46441],[-99.14355999999999,19.46438],[-99.14350999999999,19.46434],[-99.14345,19.46429],[-99.14342000000001,19.46426],[-99.14339,19.46421],[-99.14337,19.46418],[-99.14336,19.46416],[-99.14332,19.46409],[-99.14328999999999,19.46402],[-99.14324999999998,19.46396],[-99.14323000000002,19.46391],[-99.14319,19.46386],[-99.14317,19.46383],[-99.14314,19.46379],[-99.1431,19.46376],[-99.14307000000001,19.46374],[-99.14301000000002,19.4637],[-99.14297000000001,19.46368],[-99.14292,19.46366],[-99.14285000000001,19.46364],[-99.14281,19.46363],[-99.14276,19.46362],[-99.14270000000001,19.46361],[-99.14266000000001,19.46361],[-99.14261000000001,19.46361],[-99.14256000000002,19.46361],[-99.14252000000001,19.46362],[-99.14247,19.46363],[-99.14243,19.46364],[-99.14240999999998,19.46365],[-99.14238,19.46366],[-99.14234000000002,19.46368],[-99.14231,19.4637],[-99.14225999999999,19.46374],[-99.1422,19.46379],[-99.14213000000001,19.46388],[-99.14203999999999,19.46399],[-99.14187,19.46423],[-99.14189,19.46431],[-99.14189999999999,19.46434],[-99.14189999999999,19.46436],[-99.14189999999999,19.46438],[-99.14189999999999,19.4644],[-99.14185999999998,19.46452],[-99.14184000000002,19.4646],[-99.14183,19.46467],[-99.14181000000001,19.46475],[-99.1418,19.4648],[-99.1418,19.46484],[-99.14181000000001,19.46487],[-99.14108,19.46577],[-99.14091000000001,19.46602],[-99.14084999999999,19.4661],[-99.14081,19.46618],[-99.14078000000002,19.46623],[-99.14069000000001,19.46637],[-99.14062999999999,19.46647],[-99.14051999999998,19.46666],[-99.14043,19.4668],[-99.14037,19.46687],[-99.14033000000001,19.46692],[-99.14014,19.46715],[-99.14007000000001,19.46723],[-99.13997999999999,19.46735],[-99.13995999999999,19.46737],[-99.13978,19.46759],[-99.13930000000001,19.46819],[-99.139,19.46854],[-99.13864,19.46896],[-99.13856999999999,19.46904],[-99.13829000000001,19.46938],[-99.13817999999999,19.4695],[-99.13788,19.46986],[-99.13762000000001,19.47015],[-99.13746,19.47034],[-99.1365,19.47147],[-99.13621999999999,19.47183],[-99.13594999999999,19.47219],[-99.13576000000001,19.47242],[-99.13566,19.47255],[-99.13542,19.47284],[-99.13538,19.47291],[-99.1352,19.47311],[-99.13500999999999,19.47335],[-99.1348,19.4736],[-99.13472999999999,19.47368],[-99.13467,19.47375],[-99.13429000000001,19.47416],[-99.13412999999999,19.47437],[-99.13390000000001,19.47465],[-99.13345,19.4752],[-99.13297,19.47575],[-99.13237,19.47645],[-99.13217000000002,19.47669],[-99.13209000000001,19.47677],[-99.13058,19.47867],[-99.13042,19.47887],[-99.12958999999999,19.47989],[-99.12854,19.48117],[-99.12822,19.48156],[-99.12797000000001,19.48187],[-99.12741,19.48253],[-99.12725,19.48274],[-99.1272,19.4828],[-99.12709,19.48295],[-99.12700999999998,19.48303],[-99.12688,19.48319],[-99.12666,19.48345],[-99.1262,19.48398],[-99.12558,19.48469],[-99.12506999999998,19.4853],[-99.12499,19.48541],[-99.12464,19.48586],[-99.12438,19.4862],[-99.12415,19.4865],[-99.12392,19.48679],[-99.12339000000002,19.48743],[-99.12317000000002,19.4877],[-99.12284000000001,19.48811],[-99.12268,19.4883],[-99.12255999999999,19.48842],[-99.12199,19.4891],[-99.12186,19.48929],[-99.12174,19.48944],[-99.12128000000001,19.49001],[-99.12111000000002,19.49023],[-99.12102,19.49036],[-99.12095000000001,19.49045],[-99.12082,19.49067],[-99.12076,19.49078],[-99.12072000000002,19.49083],[-99.12063000000001,19.49102],[-99.12057,19.49113],[-99.12054000000001,19.4912],[-99.12050999999998,19.49126],[-99.12048,19.49133],[-99.12047,19.49136],[-99.12045999999998,19.49137],[-99.1204,19.49154],[-99.12033999999999,19.49169],[-99.12025,19.49196],[-99.11997,19.49275],[-99.11985,19.4931],[-99.11976,19.49337],[-99.11971,19.49352],[-99.11967000000001,19.49367],[-99.11958,19.49401],[-99.11954,19.49419],[-99.11944999999999,19.49454],[-99.11937,19.49489],[-99.11929000000001,19.49519],[-99.11926,19.49529],[-99.11905999999999,19.49616],[-99.11895000000001,19.49666],[-99.11879999999999,19.49728],[-99.11869,19.49777],[-99.11857999999999,19.49829],[-99.11854,19.49854],[-99.11848000000001,19.49879],[-99.11844000000002,19.49895],[-99.11837,19.49924],[-99.11833000000001,19.49942],[-99.11822999999998,19.49985],[-99.11821000000001,19.49993],[-99.11821000000001,19.49996],[-99.11817999999998,19.50007],[-99.11815,19.50018],[-99.11812999999998,19.50025],[-99.1181,19.50033],[-99.11805999999999,19.50045],[-99.11802,19.50054],[-99.11799000000002,19.50061],[-99.11795000000001,19.5007],[-99.11788,19.50084],[-99.11776999999999,19.50105],[-99.1177,19.50114],[-99.11763000000001,19.50124],[-99.11757,19.50133],[-99.11750999999998,19.50141],[-99.11741000000001,19.50152],[-99.11724,19.5017],[-99.11701000000001,19.50191],[-99.11691,19.502],[-99.11677,19.5021],[-99.11667000000001,19.50217],[-99.11656000000001,19.50224],[-99.11641,19.50233],[-99.11633000000002,19.50237],[-99.11587,19.50258],[-99.11577999999999,19.50263],[-99.11569,19.50268],[-99.11562000000001,19.50273],[-99.11539999999998,19.50288],[-99.11476,19.50325],[-99.11462,19.50333],[-99.11454000000001,19.50337],[-99.11433999999998,19.50347],[-99.11411000000001,19.50358],[-99.11388,19.50368],[-99.11302000000001,19.50408],[-99.11277999999999,19.50419],[-99.11260999999999,19.50427],[-99.11200999999998,19.50455],[-99.11149000000002,19.5048],[-99.11081,19.50512],[-99.11058,19.50524],[-99.11049,19.50529],[-99.11036,19.50536],[-99.11019,19.50546],[-99.10994,19.50559],[-99.10948000000001,19.50582],[-99.10921000000002,19.50597],[-99.10893,19.50612],[-99.10876999999999,19.50623],[-99.1086,19.50637],[-99.10848,19.50648],[-99.10836999999999,19.50659],[-99.1083,19.50666],[-99.1082,19.50678],[-99.10809999999999,19.50691],[-99.10799999999999,19.50706],[-99.10793,19.50716],[-99.10775,19.50745],[-99.10757,19.50773],[-99.10721,19.5083],[-99.10684999999999,19.50885],[-99.10673,19.50903],[-99.10664,19.50916],[-99.10657999999999,19.50924],[-99.10654,19.5093],[-99.10651,19.50936],[-99.10647,19.50941],[-99.10643,19.50945],[-99.10630999999999,19.50959],[-99.10615,19.50975],[-99.10597,19.5099],[-99.10587,19.50998],[-99.10572999999998,19.51008],[-99.1056,19.51016],[-99.10544000000002,19.51025],[-99.10526,19.51033],[-99.10508,19.51041],[-99.10485,19.51051],[-99.10449999999999,19.51066],[-99.10419,19.51079],[-99.10398000000001,19.51088],[-99.10382999999999,19.51095],[-99.10374,19.511],[-99.10362000000001,19.51108],[-99.10347,19.51118],[-99.10335000000001,19.51127],[-99.10321000000002,19.51139],[-99.10305000000001,19.51154],[-99.10288999999999,19.51173],[-99.10272999999998,19.51196],[-99.10266000000001,19.51207],[-99.10252,19.5123],[-99.10243,19.51247],[-99.10228000000001,19.51271],[-99.10214000000001,19.51296],[-99.10201000000001,19.51318],[-99.10187000000001,19.5134],[-99.10145,19.51409],[-99.10124999999999,19.51441],[-99.10115999999999,19.51455],[-99.10108,19.51468],[-99.10096,19.51486],[-99.10084999999999,19.51504],[-99.10048999999999,19.5156],[-99.10012,19.51616],[-99.10005000000001,19.51625],[-99.09979,19.51661],[-99.0997,19.51673],[-99.09966000000001,19.51678],[-99.09965,19.51679],[-99.09963000000001,19.51681],[-99.09953,19.51694],[-99.09945999999999,19.51702],[-99.09929,19.51723],[-99.09913,19.51744],[-99.099,19.51756],[-99.09895,19.51762],[-99.09892000000001,19.51765],[-99.09881,19.51778],[-99.09857,19.51804],[-99.09844000000001,19.5182],[-99.09827000000001,19.51846],[-99.09806,19.5187],[-99.09757000000001,19.51932],[-99.09744999999998,19.51947],[-99.09736,19.51957],[-99.09727000000001,19.51968],[-99.09719,19.51974],[-99.09710000000001,19.51983],[-99.09702,19.51988],[-99.09690999999999,19.51996],[-99.09684,19.52],[-99.09660999999998,19.52012],[-99.09643,19.5202],[-99.09626,19.52027],[-99.09602,19.52033],[-99.09586,19.52037],[-99.09575,19.52038],[-99.09554999999999,19.5204],[-99.09529000000001,19.5204],[-99.09448,19.52039],[-99.09421000000002,19.5204],[-99.09403,19.52041],[-99.09388000000001,19.52042],[-99.09381999999999,19.52043],[-99.09377999999998,19.52043],[-99.09343,19.52051],[-99.09310999999998,19.52063],[-99.09269999999999,19.52084],[-99.09249000000001,19.52096],[-99.09199999999999,19.52123],[-99.09195,19.52125],[-99.09114,19.52169],[-99.09106,19.52174],[-99.09063999999999,19.52199],[-99.09021000000001,19.52224],[-99.08959999999999,19.52266],[-99.08941,19.52281],[-99.08918,19.52301],[-99.08852,19.52354],[-99.08822000000001,19.52376],[-99.08808999999999,19.52394],[-99.08795000000001,19.5241],[-99.08681999999999,19.52502],[-99.08659999999999,19.5252],[-99.08637999999999,19.52539],[-99.08586,19.52586],[-99.08529,19.52639],[-99.08503,19.52666],[-99.08489,19.52678],[-99.08476000000002,19.5269],[-99.08383000000001,19.52781],[-99.08298000000002,19.52861],[-99.08257,19.52898],[-99.08215000000001,19.52938],[-99.08206,19.52947],[-99.08196,19.52956],[-99.08134,19.53016],[-99.08122,19.53029],[-99.08110000000001,19.53041],[-99.08059999999999,19.53088],[-99.08026999999999,19.53118],[-99.08022,19.53123],[-99.08014,19.5313],[-99.08002000000001,19.53141],[-99.08002000000001,19.53142],[-99.07995,19.53148],[-99.07982000000001,19.53161],[-99.07834,19.53303],[-99.07832999999998,19.53304],[-99.07759000000002,19.53377],[-99.07745,19.5339],[-99.07733,19.53404],[-99.07728,19.53409],[-99.07722,19.53415],[-99.07682000000001,19.53464],[-99.07644000000001,19.53514],[-99.07585,19.53611],[-99.07522,19.53719],[-99.07503999999999,19.53751],[-99.07445,19.53853],[-99.07438000000001,19.53864],[-99.07435,19.5387],[-99.07428,19.53882],[-99.07425000000002,19.53887],[-99.07393999999998,19.53943],[-99.07381999999998,19.53969],[-99.07371999999998,19.53992],[-99.07362000000001,19.5402],[-99.07354000000001,19.54044],[-99.07335000000001,19.54104],[-99.0733,19.54119],[-99.07317000000001,19.54165],[-99.07314,19.54175],[-99.07312,19.54183],[-99.07308999999999,19.54193],[-99.07292999999999,19.54249],[-99.07285,19.54271],[-99.07279,19.54294],[-99.07212,19.5451],[-99.07210000000001,19.54514],[-99.07205,19.54531],[-99.07187999999998,19.54583],[-99.07174000000001,19.54624],[-99.07164999999999,19.54649],[-99.07156999999999,19.5467],[-99.07147000000002,19.54693],[-99.07138000000001,19.54715],[-99.07129999999999,19.54731],[-99.07121000000001,19.54745],[-99.07109000000001,19.54762],[-99.07093999999998,19.54782],[-99.07078,19.548],[-99.07056,19.5482],[-99.07019,19.54848],[-99.0663,19.55118],[-99.06620000000001,19.55125],[-99.06614000000002,19.55129],[-99.06603999999999,19.55136],[-99.06473,19.55228],[-99.06262,19.55373],[-99.06171000000001,19.55437],[-99.06161,19.55445],[-99.06155,19.55449],[-99.06139,19.5546],[-99.06097,19.55498],[-99.06041000000002,19.55552],[-99.05802999999999,19.55808],[-99.05678,19.55942],[-99.05658999999999,19.55962],[-99.0564,19.55982],[-99.05589999999999,19.56036],[-99.05530999999999,19.561],[-99.05501,19.56136],[-99.05479,19.56171],[-99.05473000000001,19.5618],[-99.0545,19.56222],[-99.05425999999999,19.5628],[-99.05383000000001,19.56379],[-99.05372,19.56405],[-99.05328,19.56511],[-99.05298000000001,19.56585],[-99.05295,19.56593],[-99.05293,19.56601],[-99.05289999999999,19.5661],[-99.05282,19.5664],[-99.05276000000001,19.56668],[-99.05271000000001,19.56707],[-99.05266,19.56761],[-99.05257999999999,19.56874],[-99.05257,19.56889],[-99.05252000000002,19.56943],[-99.05251,19.56947],[-99.05243,19.56982],[-99.05238,19.56997],[-99.05233,19.5701],[-99.0521,19.57059],[-99.05147,19.57186],[-99.0514,19.572],[-99.0514,19.57201],[-99.05138,19.57204],[-99.05122,19.57233],[-99.05101999999999,19.57268],[-99.05091999999999,19.57285],[-99.05083999999999,19.57299],[-99.05063,19.57325],[-99.05046,19.57343],[-99.05028,19.57358],[-99.05014000000001,19.5737],[-99.04983,19.57391],[-99.04867,19.5745],[-99.04856,19.57456],[-99.04854,19.57457],[-99.0484,19.57465],[-99.04835999999999,19.57467],[-99.04792999999998,19.57496],[-99.04765,19.57518],[-99.04747999999998,19.57537],[-99.04718,19.57573],[-99.04705,19.57591],[-99.04689000000001,19.57619],[-99.04686000000001,19.57623],[-99.04685000000002,19.57625],[-99.04684,19.57627],[-99.04679,19.57635],[-99.04667000000001,19.5766],[-99.04607,19.57777],[-99.04598,19.57797],[-99.04597000000001,19.57798],[-99.04594,19.57804],[-99.04586999999998,19.57818],[-99.04530999999999,19.57924],[-99.04526,19.57933],[-99.04492999999999,19.57997],[-99.04465,19.58051],[-99.04430999999998,19.58116],[-99.04408000000001,19.5816],[-99.0437,19.58232],[-99.04364000000001,19.58242],[-99.04364000000001,19.58243],[-99.04357000000002,19.58255],[-99.04333,19.58302],[-99.04318000000002,19.58331],[-99.04304000000001,19.58364],[-99.04291999999998,19.58394],[-99.04285999999999,19.58413],[-99.04285000000002,19.58414],[-99.04277999999999,19.58434],[-99.04264999999998,19.58475],[-99.04239,19.58578],[-99.04235,19.58594],[-99.04234,19.58594],[-99.04233000000001,19.586],[-99.04228999999999,19.58615],[-99.04219999999998,19.58658],[-99.04212,19.58701],[-99.04209,19.58712],[-99.04197999999998,19.58767],[-99.0419,19.58797],[-99.04172,19.58872],[-99.04151,19.58965],[-99.04145,19.58985],[-99.04143999999999,19.5899],[-99.04142,19.58996],[-99.0414,19.59003],[-99.04137,19.59016],[-99.04129999999999,19.59044],[-99.04043,19.59393],[-99.04036000000001,19.5942],[-99.04034,19.59426],[-99.04026,19.59457],[-99.04021,19.59483],[-99.03999,19.59591],[-99.03985000000002,19.59654],[-99.03984,19.59657],[-99.03974,19.59703],[-99.03966,19.59746],[-99.03952999999999,19.59805],[-99.0395,19.59818],[-99.03948,19.59829],[-99.03947000000001,19.59833],[-99.03945,19.59843],[-99.03939,19.59874],[-99.03909,19.60009],[-99.03882,19.60103],[-99.03872,19.60132],[-99.03862,19.60142],[-99.03856,19.60149],[-99.0385,19.60157],[-99.03833,19.60164],[-99.03818999999999,19.60173],[-99.03813999999998,19.60178],[-99.03796,19.60196],[-99.03787,19.60203],[-99.03782,19.60205],[-99.03716,19.60233],[-99.03702000000001,19.60239],[-99.03689,19.60244],[-99.03644,19.60263],[-99.03628999999999,19.60272],[-99.03612,19.60287],[-99.03607999999998,19.60294],[-99.03604,19.60301],[-99.036,19.60308],[-99.03598,19.60316],[-99.03597000000001,19.60324],[-99.03596000000002,19.60332],[-99.03596000000002,19.60339],[-99.03598,19.60347],[-99.03599,19.60351],[-99.036,19.60355],[-99.03601000000002,19.60358],[-99.03602999999998,19.60362],[-99.03605,19.60365],[-99.03607,19.60369],[-99.03609,19.60372],[-99.03610999999999,19.60375],[-99.03618000000002,19.60389],[-99.03648,19.60446],[-99.03657,19.60461],[-99.03677,19.6049],[-99.03677999999999,19.60491],[-99.03691999999998,19.60502],[-99.03701,19.60518],[-99.0371,19.60534],[-99.03719000000001,19.6055],[-99.03729999999999,19.60568],[-99.03749000000001,19.60603],[-99.03757000000002,19.60619],[-99.03763999999998,19.60636],[-99.03771999999999,19.60657],[-99.03777,19.60674],[-99.03779999999999,19.6069],[-99.03783,19.60711],[-99.03786000000001,19.6074],[-99.03788,19.60771],[-99.03788,19.60844],[-99.03789,19.6087],[-99.03791000000001,19.60893],[-99.038,19.60924],[-99.03808999999998,19.60955],[-99.03821000000001,19.60987],[-99.03830999999998,19.61006],[-99.03841000000001,19.61025],[-99.03857000000002,19.61058],[-99.03879000000002,19.61097],[-99.03907,19.61148],[-99.03982000000001,19.61288],[-99.04033,19.61386],[-99.04044,19.61407],[-99.04056,19.61429],[-99.04096999999999,19.61526],[-99.04122,19.61577],[-99.04165999999999,19.61666],[-99.04213999999999,19.61764],[-99.04247999999998,19.61836],[-99.04271,19.61877],[-99.04317,19.61929],[-99.04376000000001,19.61993],[-99.04385000000002,19.62002],[-99.04433,19.62064],[-99.04586999999998,19.62329],[-99.04635000000002,19.62431],[-99.04665,19.62505],[-99.04749,19.62704],[-99.04817,19.62841],[-99.04847000000001,19.62904],[-99.04889,19.62992],[-99.04927000000001,19.63068],[-99.04965,19.63148],[-99.04974999999999,19.63167],[-99.05056999999999,19.63336],[-99.05099,19.63421],[-99.05283,19.63801],[-99.05294000000001,19.6382],[-99.0535,19.63934],[-99.05549000000001,19.64345],[-99.05646,19.64544],[-99.05694,19.64645],[-99.05763,19.64786],[-99.05864000000001,19.64994],[-99.05892000000002,19.65056],[-99.05977,19.65228],[-99.06013,19.65302],[-99.06045,19.65371],[-99.06077999999999,19.65438],[-99.06109000000001,19.655],[-99.06158000000002,19.65603],[-99.06255,19.65799],[-99.06569999999999,19.66449],[-99.06883999999999,19.67102],[-99.07004000000001,19.67345],[-99.07015000000001,19.67368],[-99.07066,19.67475],[-99.07209000000002,19.67765],[-99.07332000000001,19.68018],[-99.07332000000001,19.6802],[-99.07383,19.68121],[-99.07431999999999,19.68225],[-99.07485,19.68334],[-99.07488000000001,19.68343],[-99.07496,19.68357],[-99.07579,19.68528],[-99.07662000000001,19.68701],[-99.07776000000001,19.68938],[-99.07819000000001,19.69025],[-99.07836999999999,19.69062],[-99.07861,19.69113],[-99.07887,19.69158],[-99.07932000000001,19.69235],[-99.07947,19.69264],[-99.07965000000002,19.693],[-99.07973,19.69314],[-99.07980000000001,19.69326],[-99.0799,19.69344],[-99.08016000000001,19.69387],[-99.08054000000001,19.69472],[-99.08059999999999,19.69488],[-99.08064999999999,19.695],[-99.08071000000001,19.69515],[-99.08078,19.6953],[-99.08083000000001,19.69545],[-99.08098,19.69581],[-99.08110999999998,19.69613],[-99.08132999999998,19.69663],[-99.08204999999998,19.69817],[-99.08235999999999,19.69872],[-99.08252,19.69896],[-99.08261,19.69909],[-99.08263,19.69911],[-99.08268,19.69919],[-99.08274,19.69929],[-99.08331,19.69996],[-99.08360999999998,19.70026],[-99.08385,19.7005],[-99.08410000000001,19.70074],[-99.08438000000001,19.70101],[-99.08458,19.70122],[-99.08484,19.70152],[-99.08498999999999,19.7017],[-99.08508000000001,19.70184],[-99.08532999999999,19.70221],[-99.08543000000002,19.70238],[-99.08556,19.70263],[-99.08568,19.70287],[-99.08587999999999,19.70336],[-99.08596,19.70358],[-99.08609,19.70398],[-99.08620000000002,19.70443],[-99.08629000000001,19.70493],[-99.08629999999999,19.705],[-99.08632000000002,19.70512],[-99.0864,19.70587],[-99.08642,19.70605],[-99.08649000000001,19.70646],[-99.08651999999999,19.70659],[-99.08657,19.70686],[-99.08664,19.70712],[-99.08669,19.70727],[-99.08678000000001,19.70752],[-99.0869,19.70785],[-99.08696999999999,19.70801],[-99.08721000000001,19.70853],[-99.08763,19.7094],[-99.08845,19.71109],[-99.08899000000001,19.71219],[-99.08918,19.71259],[-99.08948,19.71322],[-99.08967,19.71361],[-99.09007,19.71443],[-99.09055000000001,19.71542],[-99.09115,19.71665],[-99.09159,19.71756],[-99.09193000000002,19.71825],[-99.09318,19.72086],[-99.09475999999999,19.72403],[-99.09521999999998,19.72498],[-99.09595,19.72645],[-99.09638999999999,19.72738],[-99.09730999999999,19.72939],[-99.09734,19.72945],[-99.09774,19.73023],[-99.09821999999998,19.73119],[-99.09878000000001,19.73239],[-99.09918,19.73323],[-99.09972999999998,19.73437],[-99.1002,19.73536],[-99.10044999999998,19.73589],[-99.10048000000001,19.73595],[-99.10048999999999,19.73598],[-99.10049999999998,19.73599],[-99.10055000000001,19.7361],[-99.10063,19.73626],[-99.10120000000001,19.73742],[-99.10173,19.73851],[-99.10221999999999,19.73951],[-99.10243,19.73994],[-99.10258,19.74024],[-99.1032,19.7415],[-99.10369,19.7425],[-99.10408,19.7433],[-99.10454,19.74427],[-99.10493,19.74506],[-99.10529,19.7457],[-99.10568000000001,19.74627],[-99.10575,19.74635],[-99.10605000000001,19.7467],[-99.10657999999999,19.74719],[-99.10702000000001,19.74755],[-99.10744999999999,19.74785],[-99.10747000000001,19.74786],[-99.10797,19.74816],[-99.10845000000001,19.7484],[-99.10895000000001,19.74859],[-99.10933000000001,19.74873],[-99.10972000000001,19.74882],[-99.11015,19.7489],[-99.11053,19.74896],[-99.11102,19.74902],[-99.11126,19.74902],[-99.11141000000001,19.74904],[-99.11142,19.74904],[-99.11150999999998,19.74905],[-99.11159000000001,19.74906],[-99.11190000000001,19.74907],[-99.11253000000001,19.74907],[-99.11285,19.74907],[-99.11373,19.74907],[-99.11476,19.74908],[-99.11547,19.74908],[-99.11594999999998,19.74909],[-99.11661999999998,19.7491],[-99.11752,19.74909],[-99.11924999999999,19.7491],[-99.12009999999999,19.74911],[-99.12095000000001,19.74911],[-99.12176,19.74912],[-99.12192,19.74912],[-99.12244999999999,19.74913],[-99.12286,19.74913],[-99.12348,19.74914],[-99.124,19.74918],[-99.12425,19.74921],[-99.12452,19.74924],[-99.12487,19.74932],[-99.12517999999999,19.7494],[-99.12541,19.74947],[-99.12567000000001,19.74955],[-99.12605000000002,19.74969],[-99.12647,19.74988],[-99.12669,19.75],[-99.12690999999998,19.75012],[-99.12712999999998,19.75024],[-99.12730000000001,19.75036],[-99.12730999999999,19.75036],[-99.12762000000001,19.75056],[-99.12858,19.75124],[-99.12940999999998,19.75182],[-99.12967000000002,19.752],[-99.12969,19.75202],[-99.1297,19.75202],[-99.12976000000001,19.75206],[-99.12999000000001,19.75222],[-99.13033999999999,19.75247],[-99.13048000000001,19.75257],[-99.13061999999999,19.75267],[-99.13129999999998,19.75316],[-99.13189,19.75359],[-99.13235,19.75389],[-99.13258,19.75405],[-99.13311,19.75444],[-99.13343999999999,19.75468],[-99.13431,19.75529],[-99.13652,19.75683],[-99.13750999999999,19.75751],[-99.14206,19.76063],[-99.14337999999999,19.76157],[-99.14436000000001,19.76226],[-99.14512000000002,19.76279],[-99.14534000000002,19.76295],[-99.14623000000002,19.76355],[-99.14785999999998,19.76461],[-99.14861999999999,19.76509],[-99.14883,19.76523],[-99.14885999999999,19.76526],[-99.14901000000002,19.76537],[-99.14929999999998,19.76562],[-99.14964000000001,19.76597],[-99.14991000000001,19.76629],[-99.15000000000001,19.7664],[-99.15007000000001,19.76649],[-99.15054000000001,19.76705],[-99.15215000000001,19.76899],[-99.15224999999998,19.76911],[-99.15228000000001,19.76915],[-99.15234,19.76922],[-99.15631999999999,19.77413],[-99.16041000000001,19.77908],[-99.16051,19.77921],[-99.16057000000002,19.77929],[-99.16061999999999,19.77935],[-99.16291999999999,19.78227],[-99.16416,19.78374],[-99.16444,19.78403],[-99.16553999999998,19.78527],[-99.16598000000001,19.78574],[-99.16604,19.78581],[-99.16623,19.78604],[-99.16629999999999,19.78612],[-99.16665999999999,19.78653],[-99.1669,19.78691],[-99.16694,19.78697],[-99.16710999999999,19.78723],[-99.16785999999999,19.78839],[-99.16911,19.79051],[-99.16979000000001,19.79162],[-99.17032,19.79231],[-99.17080999999999,19.79286],[-99.17118000000002,19.79325],[-99.17133,19.7934],[-99.17201,19.79405],[-99.17225999999998,19.79428],[-99.17246,19.79446],[-99.17363999999999,19.79539],[-99.17389,19.79558],[-99.17404000000001,19.79569],[-99.17597999999998,19.79728],[-99.17605,19.79733],[-99.17647,19.79769],[-99.17688,19.79803],[-99.17782,19.79879],[-99.17823,19.79913],[-99.17961,19.80027],[-99.17991000000002,19.80051],[-99.18009000000001,19.80066],[-99.18042000000001,19.80091],[-99.18198000000001,19.80218],[-99.18204,19.80222],[-99.18216,19.80232],[-99.18395,19.80378],[-99.18443000000001,19.80418],[-99.18554,19.80508],[-99.18641,19.80579],[-99.18651,19.80587],[-99.18671000000001,19.80602],[-99.18751,19.80669],[-99.18892999999999,19.80785],[-99.1901,19.80894],[-99.1914,19.81015],[-99.19223,19.81092],[-99.19240000000001,19.81108],[-99.19389,19.81231],[-99.19394,19.81235],[-99.19414000000002,19.81252],[-99.19441000000001,19.81274],[-99.19595,19.81398],[-99.19597999999999,19.81401],[-99.19795000000001,19.81564],[-99.19878,19.81633],[-99.20020999999998,19.81751],[-99.20137,19.81843],[-99.20204999999999,19.81897],[-99.20229999999999,19.81911],[-99.20247999999999,19.81921],[-99.20264999999999,19.81928],[-99.20323999999999,19.81946],[-99.20338000000001,19.8195],[-99.20341999999999,19.81951],[-99.20350000000001,19.81953],[-99.20429,19.81972],[-99.20435999999999,19.81973],[-99.20511999999999,19.81991],[-99.20524,19.81994],[-99.20542999999999,19.81998],[-99.20778,19.82053],[-99.20821999999998,19.82066],[-99.20867,19.82081],[-99.20938000000001,19.82112],[-99.21073,19.82174],[-99.21116999999998,19.82191],[-99.21157,19.82205],[-99.21185,19.82213],[-99.21212,19.8222],[-99.21259000000002,19.82231],[-99.21419,19.82271],[-99.21608999999999,19.82318],[-99.21638000000002,19.82324],[-99.21657999999999,19.82329],[-99.2175,19.82349],[-99.21759999999999,19.82351],[-99.2184,19.8237],[-99.21876,19.82377],[-99.21922000000001,19.82384],[-99.22008,19.8239],[-99.22109,19.82395],[-99.22159000000001,19.82395],[-99.22265999999999,19.82388],[-99.22316999999998,19.82382],[-99.22433999999998,19.82368],[-99.22537,19.82357],[-99.22596,19.82355],[-99.22633999999998,19.82354],[-99.2273,19.82361],[-99.22754999999999,19.82363],[-99.22855000000001,19.82375],[-99.22999999999999,19.82396],[-99.23164,19.82415],[-99.23171000000002,19.82416],[-99.23172000000001,19.82416],[-99.23193000000001,19.82418],[-99.23231,19.82418],[-99.23269000000001,19.82414],[-99.23304999999999,19.82408],[-99.23309999999999,19.82407],[-99.23345000000001,19.82399],[-99.23372999999998,19.8239],[-99.23393,19.82383],[-99.23402,19.8238],[-99.23435000000001,19.82367],[-99.23472999999999,19.8235],[-99.23499,19.82335],[-99.23519,19.82322],[-99.23542999999999,19.82306],[-99.2358,19.82278],[-99.2364,19.82229],[-99.23681000000001,19.82197],[-99.23772,19.82138],[-99.23803,19.82119],[-99.23824999999999,19.82106],[-99.23891,19.82059],[-99.23926,19.82039],[-99.23988,19.82002],[-99.24030000000001,19.81979],[-99.24059,19.81961],[-99.24092,19.81949],[-99.24124000000001,19.81939],[-99.24149,19.81935],[-99.24189000000001,19.81937],[-99.24223999999998,19.8194],[-99.2426,19.81948],[-99.24303999999999,19.81968],[-99.24330999999999,19.81987],[-99.24337,19.81991],[-99.24363,19.82016],[-99.24384000000001,19.82032],[-99.24513,19.8218],[-99.24594000000002,19.82271],[-99.24621999999999,19.82304],[-99.24706999999998,19.82405],[-99.24767000000001,19.82468],[-99.24786,19.82487],[-99.24802,19.82501],[-99.24825,19.82518],[-99.24841000000001,19.82529],[-99.24863000000001,19.82543],[-99.24892,19.82558],[-99.24930999999999,19.82577],[-99.25005,19.82608],[-99.25055999999999,19.8263],[-99.25388,19.82766],[-99.25446000000001,19.8279],[-99.25606000000002,19.82855],[-99.25608,19.82856],[-99.25677,19.82885],[-99.25686,19.82889],[-99.25723999999998,19.82904],[-99.26078,19.83051],[-99.26291999999999,19.83138],[-99.26307000000001,19.83144],[-99.26636000000001,19.83278],[-99.26775000000001,19.83334],[-99.26871,19.83374],[-99.26983,19.8342],[-99.27030000000001,19.83439],[-99.27088000000001,19.83465],[-99.27140000000001,19.83496],[-99.27196999999998,19.83539],[-99.27249999999999,19.83586],[-99.273,19.83639],[-99.27348000000001,19.83694],[-99.27385999999999,19.8374],[-99.27405,19.83761],[-99.27407,19.83764],[-99.27423999999999,19.83782],[-99.2752,19.83889],[-99.27554000000001,19.83928],[-99.27728999999999,19.84116],[-99.27841999999998,19.84245],[-99.27943000000001,19.84359],[-99.28057999999999,19.84492],[-99.28213999999998,19.84665],[-99.28323,19.84787],[-99.28367,19.84843],[-99.28433,19.84917],[-99.28541000000001,19.85038],[-99.28553000000001,19.85052],[-99.28557000000002,19.85056],[-99.28576,19.85079],[-99.28579000000002,19.85081],[-99.28697000000001,19.85214],[-99.28704000000001,19.85223],[-99.28768,19.85285],[-99.28774999999999,19.85292],[-99.28849,19.85355],[-99.28871,19.85373],[-99.2889,19.85388],[-99.28969999999998,19.85455],[-99.29061,19.85532],[-99.29093,19.85559],[-99.29130999999998,19.85588],[-99.29170000000001,19.85611],[-99.29203000000001,19.85628],[-99.29228999999999,19.85639],[-99.29268,19.85654],[-99.29300000000001,19.85664],[-99.29340000000001,19.85677],[-99.29377,19.85689],[-99.29407999999999,19.85699],[-99.29424999999999,19.85704],[-99.29468,19.85717],[-99.29900000000001,19.85854],[-99.30058,19.85901],[-99.30168000000001,19.85933],[-99.30193,19.85942],[-99.30255,19.85961],[-99.30301,19.85978],[-99.30352000000002,19.85999],[-99.30408999999999,19.86025],[-99.30655,19.86135],[-99.307,19.86152],[-99.30773000000001,19.86177],[-99.30833,19.86192],[-99.30902999999999,19.86206],[-99.30931000000001,19.86212],[-99.30986000000002,19.86225],[-99.31022,19.86233],[-99.31332999999998,19.86299],[-99.31385,19.86311],[-99.31435999999999,19.86322],[-99.31487000000001,19.86333],[-99.31492000000002,19.86334],[-99.31538999999999,19.86344],[-99.3159,19.86355],[-99.3164,19.86365],[-99.3169,19.86376],[-99.31740000000001,19.86387],[-99.31791,19.864],[-99.3184,19.86414],[-99.31889,19.8643],[-99.31936,19.86448],[-99.31982000000001,19.86466],[-99.32029,19.86483],[-99.32075,19.86501],[-99.32121000000001,19.86518],[-99.32168,19.86536],[-99.32214000000002,19.86554],[-99.32260000000001,19.86571],[-99.32307,19.86589],[-99.32354000000001,19.86607],[-99.324,19.86625],[-99.32445,19.86642],[-99.3249,19.86659],[-99.32532999999998,19.86675],[-99.32576000000002,19.86691],[-99.32619,19.86708],[-99.32662999999999,19.86724],[-99.32706,19.86741],[-99.32749000000001,19.86757],[-99.32792000000002,19.86773],[-99.32836999999999,19.8679],[-99.32881000000002,19.86807],[-99.32922000000001,19.86824],[-99.32973,19.86848],[-99.33017,19.86871],[-99.33059,19.86898],[-99.331,19.86929],[-99.33138000000001,19.86962],[-99.33174,19.86997],[-99.33208999999999,19.87033],[-99.33244999999999,19.87069],[-99.33282000000001,19.87107],[-99.33319,19.87145],[-99.33357,19.87184],[-99.33387000000002,19.87214],[-99.33395,19.87222],[-99.33418,19.87246],[-99.33433000000001,19.87261],[-99.33434,19.87262],[-99.33474,19.87302],[-99.33476999999999,19.87305],[-99.33513000000001,19.87343],[-99.33552,19.87382],[-99.33983000000001,19.87838],[-99.34180000000001,19.88048],[-99.34235,19.88116],[-99.34265000000002,19.88183],[-99.34269000000001,19.88195],[-99.34276,19.8822],[-99.34292000000001,19.88316],[-99.343,19.88383],[-99.34309,19.88442],[-99.34309999999999,19.88448],[-99.34309999999999,19.88451],[-99.34311000000001,19.88452],[-99.34314000000001,19.88474],[-99.34338999999999,19.88651],[-99.34351,19.88681],[-99.34365,19.88716],[-99.34396,19.88808],[-99.34426000000002,19.88888],[-99.34439,19.88921],[-99.34457999999999,19.88971],[-99.34462000000001,19.88981],[-99.34463,19.88982],[-99.34466999999998,19.88991],[-99.34549999999999,19.89153],[-99.34578000000001,19.89201],[-99.34624,19.8928],[-99.34629,19.89291],[-99.34633000000001,19.89297],[-99.34634,19.89301],[-99.34643,19.89317],[-99.34669,19.89361],[-99.34676999999999,19.89376],[-99.34677999999998,19.89378],[-99.34708000000001,19.89429],[-99.34754,19.89516],[-99.34756,19.89519],[-99.34791,19.89583],[-99.34793000000002,19.89588],[-99.34797,19.89597],[-99.34799999999999,19.89604],[-99.34809,19.89625],[-99.34823,19.89648],[-99.34886,19.89746],[-99.34896000000001,19.8976],[-99.34902,19.89773],[-99.34923000000001,19.89808],[-99.34958,19.89871],[-99.34998,19.89942],[-99.35016000000002,19.89994],[-99.35021000000002,19.90044],[-99.3502,19.90085],[-99.35012,19.90141],[-99.3501,19.90154],[-99.35005000000001,19.9017],[-99.34997,19.90196],[-99.34984,19.90254],[-99.34969,19.90401],[-99.34968000000001,19.90432],[-99.3497,19.90456],[-99.34974,19.90472],[-99.34984,19.90511],[-99.34997,19.90552],[-99.35041,19.90629],[-99.35074,19.90675],[-99.35088000000002,19.9069],[-99.35161000000001,19.90748],[-99.35166999999998,19.90753],[-99.35175,19.9076],[-99.35218,19.90801],[-99.35245999999999,19.90828],[-99.35286000000001,19.90865],[-99.35375000000001,19.90952],[-99.35478000000001,19.91047],[-99.3548,19.91049],[-99.35516999999999,19.91073],[-99.35597,19.91115],[-99.35838,19.9123],[-99.35942,19.91283],[-99.36009,19.91319],[-99.36051000000001,19.91344],[-99.36187,19.91425],[-99.36194000000002,19.9143],[-99.36246,19.91462],[-99.36284000000001,19.91486],[-99.36295000000001,19.91494],[-99.36337,19.91524],[-99.36377,19.91552],[-99.36418000000001,19.9158],[-99.36508000000001,19.91626],[-99.36594,19.91679],[-99.36672000000002,19.91729],[-99.36718000000001,19.91758],[-99.36745999999998,19.91782],[-99.36775,19.91809],[-99.36812999999998,19.91847],[-99.3687,19.91907],[-99.36955,19.91999],[-99.36969000000001,19.92014],[-99.36997,19.92044],[-99.37025,19.92074],[-99.37054999999999,19.92104],[-99.37083999999999,19.92135],[-99.37114,19.92167],[-99.37145000000001,19.922],[-99.37177,19.92232],[-99.37208,19.92265],[-99.37239,19.92298],[-99.37269000000001,19.9233],[-99.37299,19.92362],[-99.3733,19.92395],[-99.37361,19.92428],[-99.37392,19.92461],[-99.37427,19.92499],[-99.37461000000002,19.92536],[-99.37495999999999,19.92572],[-99.37529000000001,19.92609],[-99.37563,19.92646],[-99.37597,19.92683],[-99.37631,19.92719],[-99.37665,19.92755],[-99.37698,19.92789],[-99.37732,19.92821],[-99.37769,19.92849],[-99.3781,19.92874],[-99.37855,19.92897],[-99.37900999999999,19.92917],[-99.37922999999999,19.92927],[-99.37948,19.92938],[-99.37993,19.92961],[-99.38035000000001,19.92989],[-99.38072,19.93022],[-99.38088000000001,19.93038],[-99.38105,19.93056],[-99.38126,19.93084],[-99.38140000000001,19.93113],[-99.38157000000001,19.93148],[-99.38177,19.93202],[-99.38206999999999,19.93289],[-99.38227999999999,19.93336],[-99.38240999999998,19.93361],[-99.38284000000002,19.93425],[-99.38296000000001,19.93442],[-99.38321999999999,19.93475],[-99.38343,19.935],[-99.38361,19.93525],[-99.38395999999999,19.93574],[-99.38432,19.93622],[-99.38467999999999,19.9367],[-99.38504,19.93719],[-99.38539999999999,19.93767],[-99.38576000000001,19.93814],[-99.38611,19.93861],[-99.38628,19.93886],[-99.38633,19.93891],[-99.38642,19.93904],[-99.38645,19.93907],[-99.38678,19.93952],[-99.38711000000001,19.93995],[-99.38741,19.94039],[-99.38769000000001,19.94082],[-99.3877,19.94083],[-99.38798,19.9413],[-99.38824000000001,19.94175],[-99.38849,19.94217],[-99.38871,19.94255],[-99.38872000000001,19.94257],[-99.38873999999998,19.94262],[-99.38875,19.94264],[-99.38881000000001,19.94275],[-99.38892,19.94294],[-99.38911,19.94328],[-99.38930000000001,19.94361],[-99.38952000000001,19.94393],[-99.38976,19.94424],[-99.39004,19.94453],[-99.39034,19.9448],[-99.39069000000001,19.94505],[-99.39107000000001,19.94526],[-99.39146000000001,19.94544],[-99.39184,19.94558],[-99.39222,19.94568],[-99.3926,19.94577],[-99.39297999999999,19.94585],[-99.39335000000001,19.94593],[-99.39374000000001,19.94604],[-99.39411,19.94616],[-99.39448,19.94631],[-99.39478,19.94646],[-99.39484,19.9465],[-99.39523,19.9467],[-99.39564,19.94692],[-99.39606000000001,19.94715],[-99.39639,19.94734],[-99.39690000000002,19.9476],[-99.39739,19.94787],[-99.39784,19.94812],[-99.39829000000002,19.94838],[-99.39873999999999,19.94863],[-99.39917,19.94887],[-99.39955999999999,19.94908],[-99.39991999999998,19.94928],[-99.40028,19.94948],[-99.40063999999998,19.94967],[-99.40098999999999,19.94987],[-99.40133,19.95005],[-99.40137,19.95008],[-99.40166000000001,19.95023],[-99.40199,19.95041],[-99.40233000000001,19.9506],[-99.40267,19.95079],[-99.40303,19.95098],[-99.40339,19.95118],[-99.40376000000001,19.95138],[-99.40415,19.9516],[-99.40456,19.95182],[-99.40497000000001,19.95205],[-99.40537999999999,19.95228],[-99.40577999999999,19.95251],[-99.40617,19.95273],[-99.40656,19.95294],[-99.40694000000001,19.95315],[-99.40730999999998,19.95336],[-99.40761000000001,19.95352],[-99.40766000000001,19.95355],[-99.40791000000002,19.95368],[-99.40828999999999,19.95386],[-99.40869999999998,19.95403],[-99.40909000000001,19.95418],[-99.40964000000001,19.95438],[-99.41003000000001,19.95452],[-99.41034000000001,19.95467],[-99.41063999999999,19.95481],[-99.41094,19.95499],[-99.41102999999998,19.95505],[-99.41117,19.95515],[-99.41128999999999,19.95524],[-99.41141000000002,19.95533],[-99.41152,19.95543],[-99.41162,19.95552],[-99.41172,19.9556],[-99.41181,19.95568],[-99.41189,19.95576],[-99.41199,19.95585],[-99.41207999999999,19.95594],[-99.41218000000002,19.95603],[-99.41226,19.95611],[-99.41235000000002,19.95619],[-99.41244,19.95626],[-99.41252000000002,19.95634],[-99.41261,19.95643],[-99.4127,19.95651],[-99.41279,19.95659],[-99.41288,19.95666],[-99.41298000000001,19.95675],[-99.41304,19.9568],[-99.41308999999998,19.95684],[-99.41321000000001,19.95693],[-99.41341999999999,19.95709],[-99.41369000000002,19.95723],[-99.41408000000001,19.95742],[-99.41454,19.95759],[-99.41495999999999,19.95772],[-99.41536999999998,19.95783],[-99.41658999999999,19.95816],[-99.41728000000001,19.95833],[-99.41844,19.95861],[-99.419,19.95878],[-99.41932,19.95889],[-99.41958999999999,19.95901],[-99.41972,19.95908],[-99.41996999999999,19.95924],[-99.42015000000001,19.95937],[-99.42047,19.95966],[-99.42101,19.96024],[-99.42162,19.96094],[-99.42198999999999,19.96139],[-99.42255,19.96208],[-99.42313999999999,19.96277],[-99.42349,19.96314],[-99.42368999999999,19.96336],[-99.42402,19.96366],[-99.42422999999999,19.96381],[-99.42464000000001,19.96409],[-99.42523,19.96445],[-99.42572,19.96475],[-99.42619000000002,19.96507],[-99.42662,19.96542],[-99.42674,19.96554],[-99.42684,19.96567],[-99.42711,19.96603],[-99.42728,19.96634],[-99.42744999999999,19.96668],[-99.42778,19.96748],[-99.42793,19.96784],[-99.42802,19.96802],[-99.42821000000001,19.9684],[-99.42841,19.96869],[-99.4286,19.96892],[-99.4288,19.96912],[-99.42927,19.96944],[-99.42944,19.96955],[-99.42979,19.96975],[-99.43023,19.96998],[-99.43101,19.97035],[-99.43203999999999,19.97093],[-99.43236999999999,19.97114],[-99.43397999999999,19.97222],[-99.43431000000001,19.97241],[-99.43467,19.97268],[-99.43497000000002,19.97295],[-99.43522,19.97322],[-99.43545,19.97356],[-99.43564000000002,19.9739],[-99.43577000000001,19.97422],[-99.43581000000002,19.97435],[-99.43591000000001,19.97479],[-99.43599,19.97529],[-99.43601,19.97554],[-99.43603000000002,19.97592],[-99.43609999999998,19.97661],[-99.43613000000001,19.97726],[-99.43619,19.97802],[-99.43630999999999,19.97873],[-99.43635999999999,19.97891],[-99.43644999999999,19.97911],[-99.43674,19.97974],[-99.43718,19.98067],[-99.43769,19.98175],[-99.43785,19.98209],[-99.43786,19.9821],[-99.43786,19.98211],[-99.43786,19.98212],[-99.43798999999999,19.9824],[-99.43815000000001,19.98266],[-99.43828000000001,19.98288],[-99.43862,19.98334],[-99.43877999999999,19.98354],[-99.43894,19.9837],[-99.43921,19.98395],[-99.43957,19.98423],[-99.43989000000001,19.98446],[-99.44046,19.98476],[-99.44073,19.98487],[-99.44098999999999,19.98497],[-99.44128000000001,19.98506],[-99.44158,19.98516],[-99.44182000000001,19.98524],[-99.44204999999998,19.9853],[-99.44226999999998,19.98536],[-99.44247,19.9854],[-99.44333,19.98558],[-99.44359000000002,19.98566],[-99.44363,19.98567],[-99.44386,19.98573],[-99.44531000000002,19.98614],[-99.4465,19.98645],[-99.44773000000001,19.98679],[-99.44803,19.98688],[-99.44893999999998,19.98711],[-99.44931,19.98721],[-99.45048999999999,19.98754],[-99.45115000000001,19.98769],[-99.452,19.98792],[-99.45321000000001,19.98825],[-99.45442,19.98857],[-99.45655000000001,19.98916],[-99.46109,19.99033],[-99.46389000000001,19.99107],[-99.46905000000001,19.99246],[-99.4712,19.99302],[-99.47299,19.99348],[-99.4734,19.99359],[-99.47358,19.99364],[-99.47359,19.99365],[-99.47378999999998,19.9937],[-99.47589999999998,19.99427],[-99.48253,19.99606],[-99.4836,19.99633],[-99.48550000000002,19.99682],[-99.48685999999999,19.99719],[-99.48839999999998,19.99773],[-99.4902,19.99863],[-99.49573999999998,20.00201],[-99.49662000000001,20.00257],[-99.49672,20.00262],[-99.49852,20.00373],[-99.50060000000001,20.00495],[-99.50228,20.00596],[-99.50242,20.00605],[-99.50564,20.00803],[-99.50821999999999,20.00962],[-99.50865,20.00987],[-99.50945000000002,20.01034],[-99.51582999999999,20.01424],[-99.51776,20.01542],[-99.51828999999999,20.01574],[-99.51890000000002,20.01611],[-99.51989,20.01672],[-99.52018,20.01689],[-99.5202,20.01691],[-99.52021000000001,20.01691],[-99.52046000000001,20.01706],[-99.52543,20.02022],[-99.52678,20.02104],[-99.52908999999998,20.02246],[-99.53317,20.02493],[-99.53417,20.02555],[-99.53503999999998,20.02602],[-99.53553000000001,20.02626],[-99.53601999999999,20.02646],[-99.53652,20.02666],[-99.53991000000002,20.02804],[-99.53997999999999,20.02807],[-99.54326,20.02934],[-99.55015,20.032],[-99.5572,20.0347],[-99.55834,20.03514],[-99.55947999999999,20.03557],[-99.55997000000002,20.03576],[-99.55998000000001,20.03577],[-99.56066,20.03603],[-99.5607,20.03605],[-99.56214,20.03659],[-99.56917,20.03932],[-99.57128,20.04013],[-99.57429999999999,20.04127],[-99.57623,20.04198],[-99.5775,20.04245],[-99.57821000000001,20.04275],[-99.57869,20.04293],[-99.58095,20.04386],[-99.58114000000001,20.04396],[-99.58174,20.04426],[-99.58215999999999,20.04456],[-99.58254,20.0449],[-99.5829,20.04528],[-99.58316999999998,20.04558],[-99.58325000000001,20.04567],[-99.58362,20.04608],[-99.58398,20.04649],[-99.58421999999999,20.04675],[-99.58437000000002,20.04693],[-99.58438999999999,20.04695],[-99.58453,20.0471],[-99.58469,20.04728],[-99.58503,20.04767],[-99.58537,20.04805],[-99.58570999999999,20.04843],[-99.58604,20.04881],[-99.58637999999999,20.04918],[-99.58671,20.04956],[-99.5868,20.04967],[-99.58695,20.04985],[-99.58704,20.04993],[-99.58737000000002,20.05031],[-99.5877,20.05069],[-99.58804000000002,20.05107],[-99.58805000000001,20.05108],[-99.58838000000002,20.05145],[-99.58872000000001,20.05184],[-99.58906,20.05221],[-99.58937999999999,20.05257],[-99.58960000000002,20.05282],[-99.58969,20.05293],[-99.59001000000001,20.05329],[-99.59033000000001,20.05364],[-99.59063999999999,20.054],[-99.59095000000001,20.05435],[-99.59126999999999,20.05471],[-99.59159,20.05508],[-99.59192,20.05546],[-99.59198000000001,20.05552],[-99.59202999999999,20.05558],[-99.59226,20.05583],[-99.59261000000001,20.05621],[-99.59278999999998,20.05639],[-99.59281,20.05641],[-99.59296999999999,20.05658],[-99.59333000000001,20.05697],[-99.59355999999998,20.05721],[-99.5937,20.05737],[-99.59407,20.0578],[-99.59438000000002,20.05814],[-99.59441,20.05818],[-99.59443,20.0582],[-99.59448999999999,20.05826],[-99.59457999999999,20.05837],[-99.59494999999998,20.05879],[-99.59532,20.0592],[-99.59569000000001,20.05961],[-99.59604,20.06001],[-99.59638,20.06039],[-99.5967,20.06074],[-99.59700000000001,20.06107],[-99.59732,20.06138],[-99.59765,20.06168],[-99.59772000000001,20.06173],[-99.59799,20.06201],[-99.59866999999998,20.06258],[-99.59926,20.06304],[-99.60050000000001,20.06407],[-99.60055,20.06411],[-99.60084999999999,20.06435],[-99.60114,20.06461],[-99.60142000000001,20.06489],[-99.60168,20.06519],[-99.60193,20.06552],[-99.60215,20.06587],[-99.60232000000002,20.06619],[-99.60248,20.06661],[-99.60259000000001,20.06698],[-99.60283000000001,20.0677],[-99.60294000000002,20.06807],[-99.60305,20.06836],[-99.60319,20.06866],[-99.60333000000001,20.06889],[-99.60347,20.06911],[-99.60366000000002,20.06933],[-99.60382,20.06951],[-99.60406999999998,20.06974],[-99.60434000000001,20.06995],[-99.60458,20.07012],[-99.60505000000002,20.07039],[-99.60597,20.07083],[-99.60706999999998,20.07136],[-99.60782,20.07171],[-99.60861999999999,20.0721],[-99.60921999999999,20.07239],[-99.60969,20.07264],[-99.61002000000001,20.07282],[-99.61029000000001,20.07299],[-99.61055999999999,20.0732],[-99.61088,20.07344],[-99.61263,20.07491],[-99.61342999999999,20.07557],[-99.61348,20.07561],[-99.61394,20.07599],[-99.61417000000002,20.07618],[-99.61418999999999,20.07619],[-99.61421,20.07621],[-99.61448,20.07643],[-99.61650000000002,20.07816],[-99.61735,20.07886],[-99.61835000000001,20.07969],[-99.61888,20.08014],[-99.61951999999998,20.08069],[-99.61993,20.08101],[-99.62054000000001,20.08141],[-99.62105,20.0817],[-99.62165,20.08192],[-99.62241,20.08217],[-99.62381000000001,20.08244],[-99.62423000000001,20.0825],[-99.62430000000001,20.08251],[-99.62466000000001,20.08258],[-99.62499,20.08264],[-99.62529999999998,20.08269],[-99.62559,20.08275],[-99.62589,20.08281],[-99.62601999999998,20.08283],[-99.62653,20.08291],[-99.62725,20.08303],[-99.62736,20.08305],[-99.62757999999998,20.08309],[-99.62788000000001,20.08314],[-99.62836,20.08322],[-99.62841,20.08323],[-99.62842999999999,20.08323],[-99.62845000000002,20.08323],[-99.6285,20.08323],[-99.62932000000001,20.08325],[-99.62958,20.08325],[-99.62989,20.08324],[-99.63014,20.08322],[-99.63042,20.0832],[-99.63237,20.08293],[-99.63556,20.08247],[-99.63640999999998,20.08235],[-99.63655,20.08232],[-99.63757000000001,20.08215],[-99.63868999999998,20.08199],[-99.63873,20.08198],[-99.63947,20.08187],[-99.64044,20.08171],[-99.64218999999999,20.08146],[-99.64241000000001,20.08145],[-99.64261000000001,20.08142],[-99.64355999999999,20.08129],[-99.64535999999998,20.08105],[-99.64584000000002,20.08097],[-99.64660000000001,20.08083],[-99.64801,20.08062],[-99.64877,20.08051],[-99.6491,20.08047],[-99.64916,20.08047],[-99.64959,20.08045],[-99.65006,20.08046],[-99.65036000000001,20.08047],[-99.65082,20.08048],[-99.65108000000001,20.08051],[-99.65122,20.08052],[-99.65228000000001,20.08066],[-99.65451,20.08118],[-99.65527,20.08138],[-99.65622000000001,20.08162],[-99.65846000000002,20.0822],[-99.66071,20.0828],[-99.66581000000001,20.08409],[-99.67213,20.08577],[-99.67494000000001,20.08652],[-99.67865999999998,20.08745],[-99.68044999999999,20.08793],[-99.68102999999999,20.08808],[-99.68143999999998,20.0882],[-99.68181999999999,20.08832],[-99.68222,20.08847],[-99.68260000000001,20.08864],[-99.68306,20.08886],[-99.6835,20.08909],[-99.68395,20.08936],[-99.68426000000001,20.08956],[-99.68486,20.08997],[-99.68531000000002,20.09032],[-99.68567,20.09058],[-99.68617999999999,20.09105],[-99.68635,20.09123],[-99.68664,20.09149],[-99.68696,20.09181],[-99.687,20.09185],[-99.68709999999999,20.09194],[-99.68711,20.09195],[-99.68721000000001,20.09204],[-99.68725000000002,20.09209],[-99.68729,20.09213],[-99.68762,20.09244],[-99.68795,20.09277],[-99.68829,20.09308],[-99.68863,20.09342],[-99.68898000000002,20.09375],[-99.68935000000001,20.0941],[-99.68971999999998,20.09445],[-99.69009,20.09481],[-99.69045,20.09516],[-99.69081999999999,20.09551],[-99.69119000000001,20.09586],[-99.69150000000001,20.09616],[-99.69156,20.09621],[-99.69192,20.09657],[-99.69229,20.09691],[-99.69265000000002,20.09726],[-99.69302,20.09761],[-99.69338999999998,20.09797],[-99.69376,20.09833],[-99.69413,20.09869],[-99.69494,20.0994],[-99.69643999999998,20.10156],[-99.69651,20.10166],[-99.69655,20.10172],[-99.69659,20.10178],[-99.69659999999999,20.1018],[-99.69676999999999,20.10205],[-99.69704000000002,20.10251],[-99.69781999999999,20.10357],[-99.6979,20.10368],[-99.69810000000001,20.10399],[-99.69849999999998,20.1046],[-99.69978,20.10633],[-99.7003,20.10686],[-99.70098999999999,20.10741],[-99.70146,20.10761],[-99.70242,20.10799],[-99.70740000000001,20.10993],[-99.70926,20.11072],[-99.70941999999999,20.1108],[-99.71046,20.11137],[-99.71099,20.11174],[-99.71176,20.11232],[-99.71279,20.11313],[-99.71420000000001,20.11423],[-99.71536999999999,20.11521],[-99.71626000000001,20.11592],[-99.71913000000001,20.1182],[-99.72187,20.1204],[-99.72203,20.12056],[-99.72257000000001,20.12111],[-99.72313,20.12199],[-99.72374000000001,20.1231],[-99.72442,20.12459],[-99.7246,20.12499],[-99.72560999999999,20.12723],[-99.72571000000002,20.12742],[-99.72602000000001,20.12811],[-99.72814,20.13296],[-99.73102,20.13958],[-99.73251000000001,20.14293],[-99.73305000000002,20.144],[-99.7333,20.14448],[-99.73365,20.14491],[-99.73395999999998,20.14528],[-99.73452,20.14587],[-99.73794,20.14949],[-99.73916,20.15081],[-99.73927999999999,20.15094],[-99.73939999999999,20.15108],[-99.74003999999999,20.15177],[-99.74032,20.15208],[-99.74129000000001,20.15309],[-99.74442999999999,20.15639],[-99.74451999999998,20.15648],[-99.74460999999999,20.15657],[-99.74512000000001,20.15711],[-99.74634000000002,20.15844],[-99.74760000000001,20.15979],[-99.75134,20.16383],[-99.75208000000001,20.16473],[-99.75481000000001,20.16789],[-99.75677,20.17036],[-99.76149,20.17594],[-99.76308,20.17791],[-99.76674000000001,20.18223],[-99.76795,20.18378],[-99.76852000000001,20.18444],[-99.76867,20.18462],[-99.76876,20.18473],[-99.76877,20.18474],[-99.7689,20.1849],[-99.76939,20.18547],[-99.77313,20.18993],[-99.77366000000001,20.19051],[-99.77378,20.19065],[-99.77379999999999,20.19068],[-99.77395,20.19086],[-99.77471,20.19179],[-99.77865,20.19648],[-99.78162,20.2],[-99.78182,20.20025],[-99.78185000000002,20.20029],[-99.78213,20.20064],[-99.78588000000001,20.20513],[-99.78683,20.20628],[-99.78743,20.20697],[-99.78749000000001,20.20702],[-99.78754000000001,20.20708],[-99.79244,20.21109],[-99.79362999999999,20.21207],[-99.79391,20.2123],[-99.79443999999999,20.21273],[-99.79449,20.21277],[-99.79818,20.21577],[-99.80394,20.22048],[-99.8044,20.22086],[-99.80534,20.22162],[-99.80914999999999,20.22474],[-99.80964,20.22515],[-99.81079,20.22608],[-99.81179,20.22691],[-99.81197,20.22705],[-99.81221000000001,20.22725],[-99.81797,20.23193],[-99.82113,20.23449],[-99.82123,20.23457],[-99.82125000000001,20.23459],[-99.82178999999999,20.23503],[-99.82483000000001,20.23751],[-99.82706,20.23933],[-99.82754,20.23972],[-99.82958000000001,20.24138],[-99.83071,20.24229],[-99.83646,20.24694],[-99.83648,20.24696],[-99.83681,20.24723],[-99.8374,20.2477],[-99.83744000000002,20.24774],[-99.84318,20.25237],[-99.84323999999999,20.25243],[-99.84867000000001,20.25689],[-99.84990000000001,20.2579],[-99.8527,20.2602],[-99.85657999999999,20.26338],[-99.85758,20.26402],[-99.85876,20.26442],[-99.85924,20.26459],[-99.86069999999999,20.26515],[-99.86126,20.26537],[-99.8616,20.26551],[-99.86660999999999,20.26739],[-99.8686,20.26815],[-99.87226,20.26952],[-99.87389,20.27014],[-99.87485000000001,20.27051],[-99.87567,20.27083],[-99.88274000000001,20.27351],[-99.88453,20.27419],[-99.88980000000001,20.27619],[-99.89687000000001,20.27888],[-99.89829,20.27942],[-99.90021,20.28015],[-99.90217,20.28111],[-99.90371,20.28199],[-99.90858000000002,20.28478],[-99.91022,20.28572],[-99.91586,20.28883],[-99.91679000000001,20.28934],[-99.91683999999999,20.28937],[-99.91725999999999,20.28961],[-99.91763,20.28982],[-99.91770000000001,20.28986],[-99.91813999999999,20.29012],[-99.91858000000002,20.29038],[-99.91898999999998,20.29063],[-99.91936999999999,20.29085],[-99.91973,20.29107],[-99.92008999999999,20.29128],[-99.92045,20.29149],[-99.92082000000001,20.29171],[-99.92119,20.29193],[-99.92158000000002,20.29216],[-99.92196,20.29239],[-99.92234000000001,20.29261],[-99.92270999999998,20.29283],[-99.92307,20.29304],[-99.92345,20.29326],[-99.9238,20.29347],[-99.92381000000002,20.29347],[-99.92420000000001,20.29368],[-99.92456,20.29387],[-99.92489000000001,20.29405],[-99.92715000000001,20.29523],[-99.92863,20.296],[-99.92965999999998,20.29664],[-99.93026999999998,20.29699],[-99.93037000000001,20.29706],[-99.93042,20.29708],[-99.93057,20.29716],[-99.93073,20.29725],[-99.93091,20.29735],[-99.93111,20.29746],[-99.93131,20.29758],[-99.93153,20.29771],[-99.93176000000001,20.29785],[-99.932,20.29799],[-99.93226000000001,20.29816],[-99.9324,20.29825],[-99.93253,20.29833],[-99.93282000000001,20.29853],[-99.93282000000001,20.29854],[-99.93282999999998,20.29854],[-99.93294,20.29864],[-99.93310000000001,20.29876],[-99.93333,20.29898],[-99.93359999999998,20.29934],[-99.93380999999999,20.29963],[-99.93395,20.29985],[-99.93413,20.30018],[-99.93414,20.30029],[-99.93414999999999,20.30035],[-99.93424,20.30062],[-99.93429999999999,20.30084],[-99.9344,20.30126],[-99.9345,20.3017],[-99.93461000000001,20.30215],[-99.93471000000001,20.3026],[-99.93481,20.30303],[-99.9349,20.30345],[-99.93496,20.30388],[-99.93496,20.30432],[-99.93492000000002,20.30478],[-99.93481999999999,20.30525],[-99.93473,20.30555],[-99.93470000000002,20.30577],[-99.93468,20.30594],[-99.93458,20.30627],[-99.93445,20.30676],[-99.93431,20.30724],[-99.93418,20.30772],[-99.93404000000001,20.30819],[-99.93389999999999,20.30855],[-99.93387000000001,20.30863],[-99.93366,20.30901],[-99.93342999999999,20.3094],[-99.93335999999999,20.30953],[-99.93327000000001,20.30968],[-99.93311,20.30998],[-99.93286999999999,20.31044],[-99.93262,20.31091],[-99.93236999999999,20.31138],[-99.93218,20.31174],[-99.93212,20.31186],[-99.93189,20.31231],[-99.93188000000001,20.31233],[-99.93183000000001,20.31241],[-99.93162,20.3128],[-99.9314,20.31325],[-99.93133,20.31339],[-99.93117,20.3137],[-99.93099000000001,20.31413],[-99.93088,20.31461],[-99.93076999999998,20.31516],[-99.93075000000002,20.31567],[-99.93079,20.3162],[-99.93082000000001,20.31658],[-99.93084,20.31675],[-99.93102,20.31731],[-99.93189,20.31928],[-99.93237999999998,20.32038],[-99.93261,20.32094],[-99.93328,20.32249],[-99.93344,20.32288],[-99.93402,20.32415],[-99.93438999999998,20.32501],[-99.93447999999999,20.32519],[-99.93467,20.32562],[-99.93488000000001,20.32606],[-99.93493000000001,20.32617],[-99.93515999999998,20.32672],[-99.93517,20.32673],[-99.93531999999999,20.32708],[-99.93552,20.32754],[-99.93565999999998,20.32785],[-99.93598000000002,20.32853],[-99.93610000000001,20.32884],[-99.93662000000001,20.3302],[-99.93687000000001,20.3308],[-99.93715000000002,20.33144],[-99.93733,20.33178],[-99.93742,20.33193],[-99.93783999999999,20.33254],[-99.93846000000001,20.33333],[-99.93926000000002,20.33427],[-99.93989999999999,20.33504],[-99.94049000000001,20.33576],[-99.94062,20.33592],[-99.94078,20.33611],[-99.94091,20.33627],[-99.94113,20.33653],[-99.94150000000001,20.33704],[-99.9418,20.33741],[-99.9419,20.33754],[-99.94215999999999,20.33787],[-99.94275999999999,20.33862],[-99.94368,20.33981],[-99.94405999999998,20.34031],[-99.94429,20.34062],[-99.94464000000001,20.34114],[-99.94506,20.34195],[-99.94535999999999,20.34256],[-99.94560000000001,20.34304],[-99.94575,20.34335],[-99.94582999999999,20.34347],[-99.94606,20.34384],[-99.94628,20.34416],[-99.94704999999999,20.34501],[-99.94760999999998,20.34565],[-99.94813000000001,20.34625],[-99.94840000000001,20.3465],[-99.94865999999999,20.34676],[-99.95157,20.34945],[-99.95308,20.35087],[-99.95616000000001,20.35373],[-99.95657,20.35411],[-99.95742,20.35487],[-99.95771000000002,20.35514],[-99.96097,20.3581],[-99.96118,20.35829],[-99.96218,20.3593],[-99.96228000000001,20.35938],[-99.96266000000001,20.35973],[-99.96339999999998,20.36039],[-99.96346,20.36044],[-99.96369,20.36066],[-99.96402999999999,20.36092],[-99.96439000000001,20.36118],[-99.96444999999999,20.36122],[-99.96506000000001,20.36158],[-99.96558,20.36183],[-99.96592,20.36197],[-99.96632,20.36212],[-99.96662000000001,20.36221],[-99.96680000000001,20.36226],[-99.96699,20.36231],[-99.96729999999999,20.36238],[-99.96809,20.3625],[-99.96926000000001,20.36263],[-99.97159000000001,20.36281],[-99.97198,20.36285],[-99.97245000000001,20.36294],[-99.97272,20.36301],[-99.97301,20.36312],[-99.97344,20.3633],[-99.97418,20.36371],[-99.97524,20.36444],[-99.97825,20.36653],[-99.97972000000002,20.36752],[-99.97992000000001,20.36766],[-99.98005000000002,20.36775],[-99.98052,20.36807],[-99.98133,20.36842],[-99.98166000000001,20.36859],[-99.98182,20.36866],[-99.98204,20.36876],[-99.98209,20.36878],[-99.98356999999999,20.36944],[-99.98462000000001,20.36986],[-99.98477,20.36992],[-99.98495000000001,20.37],[-99.98665,20.37068],[-99.98669,20.3707],[-99.98672000000002,20.37071],[-99.98687,20.37077],[-99.98690999999998,20.37079],[-99.98711999999999,20.37088],[-99.98721000000001,20.37091],[-99.98728999999999,20.37094],[-99.98887000000001,20.37159],[-99.98897,20.37164],[-99.99005,20.37211],[-99.99034000000002,20.37222],[-99.99088,20.37245],[-99.99284000000002,20.37326],[-99.99509999999999,20.37416],[-99.99521,20.37421],[-99.99594999999999,20.37452],[-99.99611999999999,20.37459],[-99.99645999999999,20.37474],[-99.99738000000001,20.37512],[-99.9975,20.37516],[-99.99762999999999,20.37521],[-99.99771,20.37525],[-99.99776,20.37527],[-99.99896000000001,20.37575],[-99.99908000000001,20.37579],[-99.99917000000002,20.37583],[-99.99932,20.37589],[-99.99939000000001,20.37592],[-99.99947,20.37596],[-99.99966000000001,20.37604],[-99.99984000000002,20.37612],[-99.99990999999999,20.37615],[-100.00085,20.37653],[-100.00109,20.37661],[-100.00148,20.37671],[-100.00173,20.37674],[-100.00195,20.37677],[-100.00246,20.37679],[-100.00287,20.37677],[-100.0044,20.37666],[-100.00542,20.37662],[-100.00546,20.37662],[-100.00605,20.37659],[-100.00629,20.37661],[-100.0066,20.37664],[-100.00689,20.37669],[-100.0071,20.37674],[-100.00746,20.37689],[-100.00765,20.37697],[-100.00839,20.3774],[-100.00904,20.37786],[-100.01012,20.37864],[-100.01084,20.37914],[-100.01214,20.38001],[-100.01257,20.38038],[-100.01289,20.38071],[-100.01291,20.38073],[-100.01293,20.38075],[-100.01294,20.38075],[-100.01294,20.38076],[-100.01317,20.38105],[-100.01321,20.38108],[-100.0138,20.38187],[-100.01461,20.383],[-100.01594,20.38482],[-100.01637,20.38546],[-100.01666,20.38585],[-100.01695,20.38627],[-100.01733,20.38678],[-100.01735,20.38681],[-100.01744,20.38695],[-100.01792,20.38762],[-100.0188,20.38879],[-100.01968,20.38998],[-100.02084,20.39153],[-100.02126,20.39222],[-100.02135,20.39242],[-100.02145,20.39264],[-100.02163,20.39328],[-100.02197,20.39476],[-100.02207,20.39517],[-100.02208,20.39519],[-100.02216,20.39555],[-100.02235,20.39604],[-100.02246,20.39628],[-100.02276,20.39681],[-100.02296,20.3971],[-100.0231,20.39727],[-100.02331,20.39751],[-100.02392,20.39807],[-100.02402,20.39817],[-100.02456,20.39864],[-100.0246,20.39868],[-100.02533,20.39933],[-100.02647,20.40036],[-100.02755,20.40133],[-100.02763,20.4014],[-100.02776,20.40153],[-100.02799,20.40174],[-100.02819,20.40191],[-100.02906,20.40268],[-100.02927,20.40289],[-100.02964,20.40324],[-100.02987,20.40345],[-100.03016,20.40372],[-100.03018,20.40374],[-100.0302,20.40376],[-100.03024,20.4038],[-100.03118,20.40462],[-100.03166,20.40504],[-100.03229,20.40561],[-100.03266,20.40594],[-100.03431,20.40746],[-100.03433,20.40748],[-100.03452,20.40765],[-100.03655,20.4095],[-100.0387,20.41143],[-100.03977,20.4124],[-100.04093,20.41345],[-100.04257,20.41495],[-100.0431,20.41541],[-100.04447,20.41663],[-100.04526,20.41735],[-100.04795,20.41979],[-100.04995,20.42163],[-100.055,20.42619],[-100.05544,20.42659],[-100.05582,20.42693],[-100.05639,20.42738],[-100.05642,20.42741],[-100.05723,20.42804],[-100.05759,20.42832],[-100.06014,20.43029],[-100.06023,20.43035],[-100.06097,20.43086],[-100.06124,20.43104],[-100.06237,20.43178],[-100.06445,20.43317],[-100.06469,20.43336],[-100.06508,20.43368],[-100.06621,20.43471],[-100.0669,20.43538],[-100.06712,20.43564],[-100.06731,20.4359],[-100.06753,20.43626],[-100.06769,20.43655],[-100.06848,20.43788],[-100.0688,20.43837],[-100.06898,20.43863],[-100.06925,20.439],[-100.06965,20.43956],[-100.06977,20.43972],[-100.06981,20.43978],[-100.06998,20.44005],[-100.07024,20.44038],[-100.07032,20.44048],[-100.07048,20.44066],[-100.07104,20.44112],[-100.07149,20.44148],[-100.0715,20.44149],[-100.07152,20.4415],[-100.07157,20.44154],[-100.07161,20.44158],[-100.07207,20.44196],[-100.07293,20.44269],[-100.07339,20.44306],[-100.07374,20.44335],[-100.0769,20.44585],[-100.0782,20.4469],[-100.07828,20.44697],[-100.07973,20.44813],[-100.08013,20.44844],[-100.08287,20.45064],[-100.08812,20.45483],[-100.08846,20.45511],[-100.09427,20.45976],[-100.10006,20.46441],[-100.10215,20.46606],[-100.10323,20.46709],[-100.10429,20.46857],[-100.10443,20.46878],[-100.10466,20.46913],[-100.10472,20.46921],[-100.10505,20.46973],[-100.10514,20.46987],[-100.10538,20.47017],[-100.10563,20.47052],[-100.10574,20.47067],[-100.10577,20.47071],[-100.10579,20.47073],[-100.10579,20.47074],[-100.10587,20.47085],[-100.10616,20.47123],[-100.10703,20.47237],[-100.10735,20.47281],[-100.10761,20.47319],[-100.10893,20.47507],[-100.1091,20.47531],[-100.11017,20.47678],[-100.1111,20.47807],[-100.11178,20.47904],[-100.11185,20.47914],[-100.11191,20.47922],[-100.11196,20.47931],[-100.11202,20.47939],[-100.11259,20.48016],[-100.11339,20.48124],[-100.11414,20.48223],[-100.11476,20.48293],[-100.11558,20.48361],[-100.11683,20.48454],[-100.11985,20.48694],[-100.12081,20.4877],[-100.1215,20.48824],[-100.12157,20.4883],[-100.1225,20.48904],[-100.12833,20.49366],[-100.13177,20.49639],[-100.1342,20.49823],[-100.13697,20.50041],[-100.13707,20.50049],[-100.13711,20.50052],[-100.13712,20.50053],[-100.13714,20.50055],[-100.13717,20.50057],[-100.13731,20.50068],[-100.13885,20.50191],[-100.13898,20.50201],[-100.14148,20.50395],[-100.14234,20.50462],[-100.14256,20.50479],[-100.14297,20.50512],[-100.14328,20.50539],[-100.1435,20.50556],[-100.14377,20.50579],[-100.14409,20.50605],[-100.14427,20.50616],[-100.1443,20.50618],[-100.14452,20.50632],[-100.1448,20.50652],[-100.14574,20.50708],[-100.14667,20.50752],[-100.14752,20.50783],[-100.14862,20.50826],[-100.15118,20.5094],[-100.15135,20.50947],[-100.15169,20.50961],[-100.15213,20.50979],[-100.15297,20.51014],[-100.15329,20.51027],[-100.15332,20.51029],[-100.15333,20.51029],[-100.15377,20.51048],[-100.15513,20.51104],[-100.15618,20.51153],[-100.15678,20.51189],[-100.15735,20.51229],[-100.15799,20.51281],[-100.15839,20.51317],[-100.15987,20.51443],[-100.16054,20.51502],[-100.16178,20.51607],[-100.16234,20.51654],[-100.16265,20.51678],[-100.1635,20.5174],[-100.16465,20.51823],[-100.16759,20.5204],[-100.16773,20.5205],[-100.16817,20.52082],[-100.16861,20.52112],[-100.16904,20.52144],[-100.16947,20.52175],[-100.16966,20.52189],[-100.17037,20.52241],[-100.17083,20.52274],[-100.17096,20.52283],[-100.17104,20.52289],[-100.17129,20.52307],[-100.17166,20.52335],[-100.172,20.52361],[-100.17248,20.52394],[-100.17285,20.52418],[-100.17338,20.52454],[-100.17393,20.5249],[-100.17448,20.52527],[-100.17504,20.52565],[-100.1756,20.52603],[-100.17614,20.5264],[-100.17669,20.52677],[-100.17725,20.52715],[-100.17781,20.52753],[-100.17837,20.52791],[-100.17894,20.52829],[-100.17922,20.52849],[-100.17944,20.52863],[-100.17988,20.52892],[-100.18033,20.52922],[-100.18077,20.52951],[-100.18121,20.5298],[-100.18164,20.53009],[-100.18209,20.53039],[-100.18254,20.53068],[-100.18299,20.53098],[-100.18342,20.53127],[-100.18385,20.53155],[-100.18428,20.53184],[-100.18471,20.53212],[-100.18516,20.53242],[-100.18546,20.53262],[-100.1856,20.53272],[-100.18602,20.533],[-100.18645,20.53329],[-100.18687,20.53358],[-100.18728,20.53386],[-100.18745,20.53397],[-100.18772,20.53415],[-100.18817,20.53445],[-100.18863,20.53475],[-100.18909,20.53505],[-100.18953,20.53535],[-100.18961,20.5354],[-100.18998,20.53564],[-100.19017,20.53577],[-100.19044,20.53594],[-100.19072,20.53612],[-100.19077,20.53616],[-100.19092,20.53625],[-100.19124,20.53646],[-100.19148,20.53663],[-100.19162,20.53671],[-100.19213,20.53705],[-100.19263,20.53738],[-100.19312,20.53771],[-100.19343,20.53791],[-100.19359,20.53802],[-100.19401,20.5383],[-100.19443,20.53857],[-100.19482,20.53883],[-100.19521,20.53909],[-100.1956,20.53935],[-100.196,20.53962],[-100.1964,20.53988],[-100.1968,20.54015],[-100.19719,20.54041],[-100.19758,20.54067],[-100.19797,20.54092],[-100.19836,20.54118],[-100.19876,20.54145],[-100.19917,20.54171],[-100.19959,20.54198],[-100.20001,20.54225],[-100.20042,20.54253],[-100.20084,20.54281],[-100.20128,20.5431],[-100.20173,20.5434],[-100.20218,20.5437],[-100.20264,20.54401],[-100.20311,20.54432],[-100.20348,20.54457],[-100.20357,20.54463],[-100.20405,20.54495],[-100.20413,20.545],[-100.20448,20.54524],[-100.20451,20.54526],[-100.20474,20.54541],[-100.20491,20.54554],[-100.20505,20.54562],[-100.20538,20.54585],[-100.20589,20.54619],[-100.20639,20.54652],[-100.20689,20.54686],[-100.2074,20.54718],[-100.20779,20.54744],[-100.2079,20.54751],[-100.20838,20.54783],[-100.20885,20.54814],[-100.20932,20.54847],[-100.20979,20.54877],[-100.21026,20.54908],[-100.21075,20.5494],[-100.21123,20.54972],[-100.21171,20.55004],[-100.21218,20.55036],[-100.21264,20.55067],[-100.2131,20.55097],[-100.21354,20.55126],[-100.21397,20.55155],[-100.21402,20.55158],[-100.21439,20.55183],[-100.21479,20.5521],[-100.21844,20.55454],[-100.21957,20.55528],[-100.2201,20.55563],[-100.22267,20.55732],[-100.2231,20.55761],[-100.22361,20.55795],[-100.22406,20.55823],[-100.22457,20.55854],[-100.22509,20.55883],[-100.22519,20.55887],[-100.22521,20.55888],[-100.2253,20.55893],[-100.22532,20.55894],[-100.22546,20.559],[-100.22603,20.55921],[-100.22655,20.55939],[-100.22687,20.5595],[-100.22688,20.55953],[-100.22689,20.55954],[-100.2269,20.55955],[-100.22708,20.55963],[-100.22742,20.55976],[-100.22821,20.56002],[-100.22854,20.56021],[-100.22865,20.56031],[-100.22881,20.56047],[-100.22893,20.56061],[-100.22921,20.561],[-100.22947,20.56146],[-100.22982,20.56214],[-100.23023,20.56293],[-100.23046,20.56337],[-100.23067,20.56373],[-100.2308,20.56398],[-100.23255,20.56733],[-100.23339,20.56888],[-100.23528,20.57252],[-100.23594,20.57379],[-100.23641,20.57472],[-100.23718,20.57619],[-100.2393,20.58018],[-100.23987,20.58129],[-100.24102,20.58334],[-100.24159,20.58424],[-100.24262,20.58569],[-100.24315,20.58638],[-100.24369,20.5871],[-100.24589,20.58996],[-100.24756,20.59216],[-100.24759,20.59221],[-100.24764,20.59227],[-100.24769,20.59234],[-100.24783,20.59252],[-100.24801,20.59275],[-100.25228,20.59833],[-100.25671,20.60413],[-100.26004,20.60847],[-100.26074,20.60941],[-100.26137,20.61023],[-100.2614,20.61028],[-100.26164,20.61059],[-100.2629,20.61223],[-100.26336,20.61286],[-100.26424,20.61415],[-100.26502,20.61533],[-100.26631,20.6173],[-100.26644,20.6175],[-100.2692,20.6217],[-100.26948,20.62212],[-100.26984,20.62266],[-100.2702,20.6232],[-100.27034,20.6234],[-100.27123,20.62473],[-100.27145,20.62507],[-100.27334,20.62792],[-100.27344,20.62808],[-100.27367,20.62845],[-100.27378,20.62861],[-100.27389,20.62877],[-100.27396,20.62889],[-100.27404,20.62901],[-100.27422,20.62929],[-100.27506,20.63058],[-100.27561,20.63139],[-100.27585,20.63176],[-100.27598,20.63195],[-100.2761,20.63213],[-100.27636,20.63252],[-100.27864,20.63603],[-100.2788,20.63626],[-100.27896,20.6365],[-100.27937,20.63713],[-100.27965,20.63755],[-100.28032,20.63855],[-100.28076,20.6392],[-100.28085,20.63933],[-100.28187,20.64074],[-100.2824,20.64147],[-100.28316,20.6425],[-100.28748,20.6484],[-100.29029,20.65226],[-100.2918,20.6543],[-100.29205,20.65465],[-100.29249,20.65525],[-100.2931,20.65609],[-100.29337,20.65646],[-100.29496,20.65862],[-100.29574,20.65971],[-100.29612,20.66022],[-100.29624,20.66038],[-100.29659,20.66088],[-100.29709,20.66154],[-100.29885,20.66396],[-100.29975,20.66525],[-100.30439,20.67225],[-100.30495,20.67307],[-100.30544,20.67378],[-100.30545,20.6738],[-100.30611,20.67483],[-100.30624,20.67505],[-100.30684,20.67595],[-100.30766,20.67718],[-100.30816,20.67794],[-100.30838,20.67827],[-100.30875,20.67881],[-100.309,20.67916],[-100.30914,20.67935],[-100.30928,20.67952],[-100.30956,20.67983],[-100.30971,20.68001],[-100.30991,20.68023],[-100.31014,20.68046],[-100.3104,20.6807],[-100.31072,20.68097],[-100.31112,20.68127],[-100.31168,20.68167],[-100.31225,20.68203],[-100.31246,20.68214],[-100.31287,20.68237],[-100.31385,20.68289],[-100.31532,20.68365],[-100.31582,20.68392],[-100.3169,20.68451],[-100.3179,20.68505],[-100.31907,20.68568],[-100.32235,20.68744],[-100.32245,20.68749],[-100.32334,20.68797],[-100.32448,20.6886],[-100.32483,20.68878],[-100.32621,20.68961],[-100.32654,20.68983],[-100.32685,20.69004],[-100.32715,20.69025],[-100.32753,20.69054],[-100.32871,20.69152],[-100.32984,20.69258],[-100.33034,20.69307],[-100.33399,20.69664],[-100.3354,20.698],[-100.33591,20.69849],[-100.33746,20.70001],[-100.339,20.7015],[-100.34162,20.70393],[-100.34213,20.70437],[-100.34261,20.70478],[-100.34298,20.7051],[-100.34306,20.70517],[-100.34331,20.70535],[-100.34451,20.70616],[-100.34647,20.70753],[-100.34975,20.70986],[-100.35188,20.71138],[-100.35317,20.71228],[-100.35398,20.71283],[-100.3541,20.71293],[-100.35504,20.71359],[-100.35588,20.71417],[-100.35674,20.71477],[-100.35714,20.71505],[-100.35717,20.71508],[-100.35719,20.71509],[-100.35753,20.71533],[-100.35869,20.71615],[-100.35962,20.71681],[-100.36018,20.7172],[-100.36084,20.71766],[-100.36196,20.71846],[-100.36291,20.71914],[-100.36374,20.71974],[-100.36434,20.72021],[-100.36509,20.72086],[-100.36536,20.7211],[-100.3656,20.72133],[-100.36618,20.7219],[-100.3675,20.72329],[-100.36761,20.72341],[-100.3688,20.72469],[-100.36924,20.72517],[-100.36991,20.7259],[-100.3706,20.72664],[-100.3709,20.72695],[-100.37133,20.72741],[-100.37189,20.728],[-100.37254,20.7287],[-100.37305,20.72924],[-100.37337,20.72959],[-100.3736,20.72983],[-100.37488,20.73118],[-100.37576,20.73212],[-100.37604,20.73241],[-100.37631,20.7327],[-100.37763,20.73408],[-100.37769,20.73415],[-100.37776,20.73422],[-100.37841,20.73493],[-100.37873,20.73526],[-100.37897,20.73552],[-100.37942,20.73604],[-100.37987,20.73657],[-100.38028,20.73709],[-100.38087,20.7379],[-100.38113,20.73829],[-100.38136,20.73867],[-100.38149,20.73888],[-100.38163,20.73913],[-100.38173,20.73929],[-100.38203,20.73983],[-100.3821,20.73995],[-100.38254,20.74075],[-100.38302,20.7416],[-100.38343,20.74233],[-100.38443,20.74407],[-100.38446,20.74412],[-100.38469,20.74451],[-100.38493,20.74493],[-100.38518,20.74537],[-100.3855,20.74593],[-100.38602,20.7468],[-100.38636,20.74742],[-100.3869,20.74838],[-100.38735,20.74922],[-100.3878,20.74998],[-100.38808,20.75047],[-100.38835,20.75095],[-100.38886,20.75184],[-100.38934,20.75267],[-100.38982,20.7535],[-100.39037,20.75442],[-100.39048,20.7546],[-100.39076,20.75508],[-100.3911,20.75555],[-100.39171,20.75635],[-100.39195,20.75666],[-100.3922,20.75697],[-100.3927,20.75754],[-100.39304,20.75791],[-100.39445,20.75942],[-100.39537,20.76038],[-100.39652,20.76159],[-100.39724,20.76235],[-100.39785,20.763],[-100.39954,20.76477],[-100.40011,20.76537],[-100.40053,20.7658],[-100.4022,20.76755],[-100.40295,20.76831],[-100.40306,20.76843],[-100.40312,20.76848],[-100.40312,20.76849],[-100.40462,20.77006],[-100.40523,20.77068],[-100.40622,20.77169],[-100.40758,20.7731],[-100.40874,20.77431],[-100.40879,20.77437],[-100.41002,20.77561],[-100.4104,20.77599],[-100.41073,20.77632],[-100.41082,20.7764],[-100.41251,20.77809],[-100.41354,20.77912],[-100.41397,20.77956],[-100.41435,20.77995],[-100.41612,20.78167],[-100.41661,20.78215],[-100.41678,20.78231],[-100.41737,20.78289],[-100.41859,20.78416],[-100.41958,20.78513],[-100.41993,20.78548],[-100.42057,20.78613],[-100.42072,20.78627],[-100.42085,20.7864],[-100.42167,20.78724],[-100.42414,20.78975],[-100.42603,20.79195],[-100.42659,20.7927],[-100.4271,20.79341],[-100.42882,20.79589],[-100.43075,20.7987],[-100.43245,20.80121],[-100.433,20.80202],[-100.43496,20.80466],[-100.43682,20.80743],[-100.43736,20.80819],[-100.43808,20.80923],[-100.43826,20.80946],[-100.43854,20.80977],[-100.43925,20.81059],[-100.4398,20.81118],[-100.44012,20.81149],[-100.44044,20.81181],[-100.4407,20.81204],[-100.44112,20.81242],[-100.44227,20.81338],[-100.44237,20.81346],[-100.44241,20.81349],[-100.44245,20.81352],[-100.44263,20.81367],[-100.44272,20.81375],[-100.4428,20.81382],[-100.44295,20.81396],[-100.4431,20.81408],[-100.44347,20.81438],[-100.4437,20.81456],[-100.44407,20.81481],[-100.44447,20.81504],[-100.44472,20.81517],[-100.44547,20.81553],[-100.44555,20.81557],[-100.44572,20.81565],[-100.44642,20.81605],[-100.44651,20.81621],[-100.44663,20.81632],[-100.4468,20.81652],[-100.44688,20.81661],[-100.44698,20.81675],[-100.44712,20.81699],[-100.4473,20.8174],[-100.4474,20.81775],[-100.44757,20.81841],[-100.44766,20.81873],[-100.44769,20.81893],[-100.44769,20.81908],[-100.44768,20.81925],[-100.44767,20.81942],[-100.44764,20.81962],[-100.44762,20.81977],[-100.44766,20.81995],[-100.44762,20.82003],[-100.44759,20.82015],[-100.44755,20.8203],[-100.44752,20.82041],[-100.44748,20.82054],[-100.44743,20.82064],[-100.4474,20.82071],[-100.44738,20.82075],[-100.44683,20.82183],[-100.44681,20.82188],[-100.44657,20.82214],[-100.4465,20.82224],[-100.44634,20.82258],[-100.44622,20.82285],[-100.44602,20.82326],[-100.44592,20.82346],[-100.44588,20.82355],[-100.44584,20.82361],[-100.44581,20.82363],[-100.44578,20.82365],[-100.44575,20.82366],[-100.44572,20.82366],[-100.44568,20.82366],[-100.44566,20.82365],[-100.44564,20.82365],[-100.44559,20.82354],[-100.44556,20.82348],[-100.44553,20.82345],[-100.44551,20.82342],[-100.44546,20.82338],[-100.44544,20.82336],[-100.44533,20.8233],[-100.44531,20.82329],[-100.44523,20.82324],[-100.44504,20.82313],[-100.44502,20.82312],[-100.44471,20.82296],[-100.4443,20.82274],[-100.44398,20.82261],[-100.44331,20.82238],[-100.44297,20.82225],[-100.44297,20.82224],[-100.44297,20.82222],[-100.44297,20.82221],[-100.44296,20.8222],[-100.44296,20.82219],[-100.44295,20.82218],[-100.44295,20.82217],[-100.44294,20.82215],[-100.44293,20.82214],[-100.44292,20.82213],[-100.44291,20.82212],[-100.4429,20.82212],[-100.44289,20.82211],[-100.44288,20.8221],[-100.44287,20.8221],[-100.44286,20.82209],[-100.44285,20.82209],[-100.44283,20.82208],[-100.44282,20.82208],[-100.44281,20.82208],[-100.44279,20.82208],[-100.44278,20.82208],[-100.44277,20.82208],[-100.44275,20.82208],[-100.44274,20.82209],[-100.44273,20.82209]]}
}
]}